data/1.1.1k.s.csv

#Digilent WaveForms Oscilloscope Acquisition,,
#Device Name: Discovery2,,
#Serial Number: SN:210321AC1D4D,,
#Date Time: 2020-12-03 16:29:57.227,,
#Sample rate: 800000Hz,,
#Samples: 8192,,
#Trigger: Source: Channel 1 Type: Edge Condition: Rising Level: 0 V Hyst.: Auto HoldOff: 0 s,,
#Channel 1: Range: 2 V/div Offset: 0 V Attenuation: 1 X,,
#Channel 2: Range: 2 V/div Offset: 0 V Attenuation: 1 X,,
#Wavegen Channel 1: Running,,
#Mode: Simple,,
#Type: Sine,,
#Frequency: 1 kHz,,
#Period: 1 ms,,
#Amplitude: 1 V,,
#Offset: 2.5 V,,
#Symmetry: 50 %,,
#Phase: 0 ��,,
#Power Supplies: ON,,
#Positive Supply: ON,,
#Voltage: 5 V,,
#Negative Supply: ON,,
#Voltage: -5 V,,
,,
Time (s),Channel 1 (V),Channel 2 (V)
0.42772375,0.64953833,2.5
0.427725,0.724812965,2.492146099
0.42772625,0.84525238,2.484292683
0.4277275,0.976982991,2.476440235
0.42772875,1.112477334,2.468589241
0.42773,1.251735408,2.460740184
0.42773125,1.387229751,2.452893549
0.4277325,1.522724093,2.44504982
0.42773375,1.650690973,2.43720948
0.427735,1.789949047,2.429373014
0.42773625,1.92544339,2.421540904
0.4277375,2.064701464,2.413713634
0.42773875,2.203959538,2.405891687
0.42774,2.331926417,2.398075544
0.42774125,2.478711955,2.390265689
0.4277425,2.61797003,2.382462603
0.42774375,2.749700641,2.374666766
0.427745,2.881431251,2.366878661
0.42774625,3.016925594,2.359098768
0.4277475,3.152419937,2.351327566
0.42774875,3.287914279,2.343565535
0.42775,3.430936085,2.335813153
0.42775125,3.562666696,2.3280709
0.4277525,3.698161039,2.320339251
0.42775375,3.837419113,2.312618685
0.427755,3.972913456,2.304909678
0.42775625,4.108407799,2.297212705
0.4277575,4.240138409,2.28952824
0.42775875,4.353050362,2.281856759
0.42776,4.424561265,2.274198733
0.42776125,4.45843485,2.266554636
0.4277625,4.465962314,2.258924939
0.42776375,4.45843485,2.251310113
0.427765,4.454671119,2.243710627
0.42776625,4.450907387,2.23612695
0.4277675,4.447143655,2.22855955
0.42776875,4.454671119,2.221008894
0.42777,4.454671119,2.213475447
0.42777125,4.450907387,2.205959675
0.4277725,4.450907387,2.19846204
0.42777375,4.443379923,2.190983006
0.427775,4.443379923,2.183523033
0.42777625,4.443379923,2.176082582
0.4277775,4.447143655,2.168662112
0.42777875,4.439616192,2.16126208
0.42778,4.439616192,2.153882943
0.42778125,4.43585246,2.146525156
0.4277825,4.439616192,2.139189174
0.42778375,4.439616192,2.131875447
0.427785,4.43585246,2.124584429
0.42778625,4.432088728,2.117316568
0.4277875,4.428324996,2.110072312
0.42778875,4.424561265,2.102852109
0.42779,4.424561265,2.095656404
0.42779125,4.424561265,2.088485641
0.4277925,4.424561265,2.081340262
0.42779375,4.424561265,2.074220708
0.427795,4.428324996,2.067127418
0.42779625,4.428324996,2.06006083
0.4277975,4.428324996,2.053021379
0.42779875,4.428324996,2.0460095
0.4278,4.424561265,2.039025625
0.42780125,4.420797533,2.032070186
0.4278025,4.417033801,2.02514361
0.42780375,4.417033801,2.018246326
0.427805,4.420797533,2.011378759
0.42780625,4.420797533,2.004541332
0.4278075,4.417033801,1.997734467
0.42780875,4.41327007,1.990958584
0.42781,4.417033801,1.984214102
0.42781125,4.41327007,1.977501435
0.4278125,4.41327007,1.970820999
0.42781375,4.41327007,1.964173205
0.427815,4.41327007,1.957558463
0.42781625,4.405742606,1.950977182
0.4278175,4.409506338,1.944429767
0.42781875,4.41327007,1.937916622
0.42782,4.405742606,1.931438149
0.42782125,4.409506338,1.924994748
0.4278225,4.417033801,1.918586816
0.42782375,4.409506338,1.912214748
0.427825,4.405742606,1.905878937
0.42782625,4.409506338,1.899579775
0.4278275,4.405742606,1.893317649
0.42782875,4.409506338,1.887092946
0.42783,4.409506338,1.880906051
0.42783125,4.405742606,1.874757344
0.4278325,4.405742606,1.868647205
0.42783375,4.409506338,1.86257601
0.427835,4.409506338,1.856544135
0.42783625,4.401978874,1.850551952
0.4278375,4.405742606,1.844599829
0.42783875,4.401978874,1.838688135
0.42784,4.398215143,1.832817233
0.42784125,4.401978874,1.826987486
0.4278425,4.398215143,1.821199254
0.42784375,4.394451411,1.815452894
0.427845,4.398215143,1.80974876
0.42784625,4.405742606,1.804087203
0.4278475,4.398215143,1.798468574
0.42784875,4.401978874,1.792893219
0.42785,4.405742606,1.787361481
0.42785125,4.401978874,1.781873702
0.4278525,4.401978874,1.776430221
0.42785375,4.401978874,1.771031373
0.427855,4.398215143,1.765677491
0.42785625,4.398215143,1.760368905
0.4278575,4.398215143,1.755105943
0.42785875,4.401978874,1.74988893
0.42786,4.398215143,1.744718188
0.42786125,4.401978874,1.739594034
0.4278625,4.401978874,1.734516787
0.42786375,4.394451411,1.729486757
0.427865,4.394451411,1.724504257
0.42786625,4.394451411,1.719569593
0.4278675,4.394451411,1.714683069
0.42786875,4.394451411,1.709844988
0.42787,4.394451411,1.705055647
0.42787125,4.398215143,1.700315342
0.4278725,4.398215143,1.695624365
0.42787375,4.394451411,1.690983006
0.427875,4.390687679,1.68639155
0.42787625,4.398215143,1.681850283
0.4278775,4.401978874,1.677359482
0.42787875,4.398215143,1.672919426
0.42788,4.398215143,1.668530388
0.42788125,4.394451411,1.664192639
0.4278825,4.394451411,1.659906446
0.42788375,4.394451411,1.655672074
0.427885,4.398215143,1.651489785
0.42788625,4.398215143,1.647359836
0.4278875,4.398215143,1.643282481
0.42788875,4.398215143,1.639257973
0.42789,4.401978874,1.635286559
0.42789125,4.398215143,1.631368486
0.4278925,4.398215143,1.627503993
0.42789375,4.398215143,1.62369332
0.427895,4.398215143,1.619936702
0.42789625,4.401978874,1.61623437
0.4278975,4.398215143,1.612586553
0.42789875,4.398215143,1.608993476
0.4279,4.398215143,1.60545536
0.42790125,4.398215143,1.601972424
0.4279025,4.401978874,1.598544883
0.42790375,4.398215143,1.595172948
0.427905,4.398215143,1.591856826
0.42790625,4.394451411,1.588596723
0.4279075,4.390687679,1.58539284
0.42790875,4.390687679,1.582245374
0.42791,4.394451411,1.57915452
0.42791125,4.398215143,1.576120467
0.4279125,4.398215143,1.573143404
0.42791375,4.394451411,1.570223514
0.427915,4.394451411,1.567360977
0.42791625,4.398215143,1.564555969
0.4279175,4.398215143,1.561808664
0.42791875,4.398215143,1.559119231
0.42792,4.394451411,1.556487836
0.42792125,4.394451411,1.553914641
0.4279225,4.394451411,1.551399805
0.42792375,4.394451411,1.548943484
0.427925,4.394451411,1.546545828
0.42792625,4.390687679,1.544206985
0.4279275,4.394451411,1.541927101
0.42792875,4.390687679,1.539706314
0.42793,4.390687679,1.537544764
0.42793125,4.398215143,1.535442582
0.4279325,4.394451411,1.533399898
0.42793375,4.394451411,1.531416839
0.427935,4.398215143,1.529493527
0.42793625,4.401978874,1.52763008
0.4279375,4.398215143,1.525826613
0.42793875,4.398215143,1.524083238
0.42794,4.401978874,1.522400062
0.42794125,4.398215143,1.520777189
0.4279425,4.390687679,1.51921472
0.42794375,4.390687679,1.517712749
0.427945,4.398215143,1.516271371
0.42794625,4.398215143,1.514890674
0.4279475,4.398215143,1.513570743
0.42794875,4.394451411,1.512311659
0.42795,4.394451411,1.511113501
0.42795125,4.394451411,1.509976342
0.4279525,4.394451411,1.508900253
0.42795375,4.394451411,1.507885299
0.427955,4.390687679,1.506931543
0.42795625,4.394451411,1.506039045
0.4279575,4.398215143,1.505207858
0.42795875,4.390687679,1.504438035
0.42796,4.394451411,1.503729624
0.42796125,4.390687679,1.503082666
0.4279625,4.394451411,1.502497204
0.42796375,4.394451411,1.501973272
0.427965,4.398215143,1.501510903
0.42796625,4.390687679,1.501110125
0.4279675,4.394451411,1.500770964
0.42796875,4.390687679,1.50049344
0.42797,4.390687679,1.50027757
0.42797125,4.394451411,1.500123368
0.4279725,4.394451411,1.500030842
0.42797375,4.394451411,1.5
0.427975,4.398215143,1.500030842
0.42797625,4.394451411,1.500123368
0.4279775,4.394451411,1.50027757
0.42797875,4.394451411,1.50049344
0.42798,4.394451411,1.500770964
0.42798125,4.394451411,1.501110125
0.4279825,4.394451411,1.501510903
0.42798375,4.398215143,1.501973272
0.427985,4.394451411,1.502497204
0.42798625,4.394451411,1.503082666
0.4279875,4.394451411,1.503729624
0.42798875,4.394451411,1.504438035
0.42799,4.394451411,1.505207858
0.42799125,4.398215143,1.506039045
0.4279925,4.394451411,1.506931543
0.42799375,4.398215143,1.507885299
0.427995,4.394451411,1.508900253
0.42799625,4.394451411,1.509976342
0.4279975,4.394451411,1.511113501
0.42799875,4.398215143,1.512311659
0.428,4.390687679,1.513570743
0.42800125,4.394451411,1.514890674
0.4280025,4.398215143,1.516271371
0.42800375,4.398215143,1.517712749
0.428005,4.394451411,1.51921472
0.42800625,4.394451411,1.520777189
0.4280075,4.390687679,1.522400062
0.42800875,4.390687679,1.524083238
0.42801,4.398215143,1.525826613
0.42801125,4.394451411,1.52763008
0.4280125,4.398215143,1.529493527
0.42801375,4.398215143,1.531416839
0.428015,4.390687679,1.533399898
0.42801625,4.394451411,1.535442582
0.4280175,4.394451411,1.537544764
0.42801875,4.394451411,1.539706314
0.42802,4.398215143,1.541927101
0.42802125,4.394451411,1.544206985
0.4280225,4.394451411,1.546545828
0.42802375,4.390687679,1.548943484
0.428025,4.394451411,1.551399805
0.42802625,4.394451411,1.553914641
0.4280275,4.398215143,1.556487836
0.42802875,4.398215143,1.559119231
0.42803,4.394451411,1.561808664
0.42803125,4.390687679,1.564555969
0.4280325,4.398215143,1.567360977
0.42803375,4.394451411,1.570223514
0.428035,4.390687679,1.573143404
0.42803625,4.390687679,1.576120467
0.4280375,4.394451411,1.57915452
0.42803875,4.394451411,1.582245374
0.42804,4.394451411,1.58539284
0.42804125,4.394451411,1.588596723
0.4280425,4.398215143,1.591856826
0.42804375,4.401978874,1.595172948
0.428045,4.394451411,1.598544883
0.42804625,4.394451411,1.601972424
0.4280475,4.390687679,1.60545536
0.42804875,4.394451411,1.608993476
0.42805,4.394451411,1.612586553
0.42805125,4.398215143,1.61623437
0.4280525,4.398215143,1.619936702
0.42805375,4.398215143,1.62369332
0.428055,4.398215143,1.627503993
0.42805625,4.394451411,1.631368486
0.4280575,4.394451411,1.635286559
0.42805875,4.394451411,1.639257973
0.42806,4.394451411,1.643282481
0.42806125,4.394451411,1.647359836
0.4280625,4.398215143,1.651489785
0.42806375,4.398215143,1.655672074
0.428065,4.394451411,1.659906446
0.42806625,4.398215143,1.664192639
0.4280675,4.398215143,1.668530388
0.42806875,4.398215143,1.672919426
0.42807,4.398215143,1.677359482
0.42807125,4.398215143,1.681850283
0.4280725,4.394451411,1.68639155
0.42807375,4.394451411,1.690983006
0.428075,4.398215143,1.695624365
0.42807625,4.398215143,1.700315342
0.4280775,4.398215143,1.705055647
0.42807875,4.401978874,1.709844988
0.42808,4.394451411,1.714683069
0.42808125,4.390687679,1.719569593
0.4280825,4.394451411,1.724504257
0.42808375,4.398215143,1.729486757
0.428085,4.390687679,1.734516787
0.42808625,4.394451411,1.739594034
0.4280875,4.394451411,1.744718188
0.42808875,4.394451411,1.74988893
0.42809,4.398215143,1.755105943
0.42809125,4.394451411,1.760368905
0.4280925,4.394451411,1.765677491
0.42809375,4.398215143,1.771031373
0.428095,4.394451411,1.776430221
0.42809625,4.398215143,1.781873702
0.4280975,4.394451411,1.787361481
0.42809875,4.398215143,1.792893219
0.4281,4.390687679,1.798468574
0.42810125,4.390687679,1.804087203
0.4281025,4.394451411,1.80974876
0.42810375,4.394451411,1.815452894
0.428105,4.394451411,1.821199254
0.42810625,4.398215143,1.826987486
0.4281075,4.398215143,1.832817233
0.42810875,4.398215143,1.838688135
0.42811,4.394451411,1.844599829
0.42811125,4.398215143,1.850551952
0.4281125,4.398215143,1.856544135
0.42811375,4.398215143,1.86257601
0.428115,4.398215143,1.868647205
0.42811625,4.394451411,1.874757344
0.4281175,4.398215143,1.880906051
0.42811875,4.398215143,1.887092946
0.42812,4.394451411,1.893317649
0.42812125,4.394451411,1.899579775
0.4281225,4.398215143,1.905878937
0.42812375,4.394451411,1.912214748
0.428125,4.394451411,1.918586816
0.42812625,4.394451411,1.924994748
0.4281275,4.394451411,1.931438149
0.42812875,4.394451411,1.937916622
0.42813,4.401978874,1.944429767
0.42813125,4.394451411,1.950977182
0.4281325,4.398215143,1.957558463
0.42813375,4.401978874,1.964173205
0.428135,4.398215143,1.970820999
0.42813625,4.398215143,1.977501435
0.4281375,4.398215143,1.984214102
0.42813875,4.398215143,1.990958584
0.42814,4.398215143,1.997734467
0.42814125,4.398215143,2.004541332
0.4281425,4.394451411,2.011378759
0.42814375,4.394451411,2.018246326
0.428145,4.394451411,2.02514361
0.42814625,4.398215143,2.032070186
0.4281475,4.398215143,2.039025625
0.42814875,4.394451411,2.0460095
0.42815,4.394451411,2.053021379
0.42815125,4.394451411,2.06006083
0.4281525,4.398215143,2.067127418
0.42815375,4.398215143,2.074220708
0.428155,4.394451411,2.081340262
0.42815625,4.398215143,2.088485641
0.4281575,4.394451411,2.095656404
0.42815875,4.398215143,2.102852109
0.42816,4.394451411,2.110072312
0.42816125,4.390687679,2.117316568
0.4281625,4.398215143,2.124584429
0.42816375,4.398215143,2.131875447
0.428165,4.398215143,2.139189174
0.42816625,4.398215143,2.146525156
0.4281675,4.394451411,2.153882943
0.42816875,4.401978874,2.16126208
0.42817,4.401978874,2.168662112
0.42817125,4.394451411,2.176082582
0.4281725,4.394451411,2.183523033
0.42817375,4.398215143,2.190983006
0.428175,4.390687679,2.19846204
0.42817625,4.394451411,2.205959675
0.4281775,4.398215143,2.213475447
0.42817875,4.394451411,2.221008894
0.42818,4.394451411,2.22855955
0.42818125,4.394451411,2.23612695
0.4281825,4.398215143,2.243710627
0.42818375,4.394451411,2.251310113
0.428185,4.398215143,2.258924939
0.42818625,4.394451411,2.266554636
0.4281875,4.398215143,2.274198733
0.42818875,4.398215143,2.281856759
0.42819,4.394451411,2.28952824
0.42819125,4.394451411,2.297212705
0.4281925,4.398215143,2.304909678
0.42819375,4.394451411,2.312618685
0.428195,4.398215143,2.320339251
0.42819625,4.394451411,2.3280709
0.4281975,4.394451411,2.335813153
0.42819875,4.390687679,2.343565535
0.4282,4.394451411,2.351327566
0.42820125,4.398215143,2.359098768
0.4282025,4.398215143,2.366878661
0.42820375,4.394451411,2.374666766
0.428205,4.390687679,2.382462603
0.42820625,4.394451411,2.390265689
0.4282075,4.398215143,2.398075544
0.42820875,4.398215143,2.405891687
0.42821,4.386923947,2.413713634
0.42821125,4.394451411,2.421540904
0.4282125,4.394451411,2.429373014
0.42821375,4.394451411,2.43720948
0.428215,4.390687679,2.44504982
0.42821625,4.386923947,2.452893549
0.4282175,4.341759166,2.460740184
0.42821875,4.251429605,2.468589241
0.42822,4.123462726,2.476440235
0.42822125,3.969149724,2.484292683
0.4282225,3.799781796,2.492146099
0.42822375,3.641705063,2.5
0.428225,3.479864598,2.507853901
0.42822625,3.306732938,2.515707317
0.4282275,3.13736501,2.523559765
0.42822875,2.967997081,2.531410759
0.42823,2.79110169,2.539259816
0.42823125,2.61797003,2.547106451
0.4282325,2.44483837,2.55495018
0.42823375,2.27170671,2.56279052
0.428235,2.091047586,2.570626986
0.42823625,1.914152194,2.578459096
0.4282375,1.741020534,2.586286366
0.42823875,1.567888874,2.594108313
0.42824,1.390993482,2.601924456
0.42824125,1.221625554,2.609734311
0.4282425,1.037202699,2.617537397
0.42824375,0.864071039,2.625333234
0.428245,0.702230574,2.633121339
0.42824625,0.596846085,2.640901232
0.4282475,0.58555489,2.648672434
0.42824875,0.581791158,2.656434465
0.42825,0.574263695,2.664186847
0.42825125,0.570499963,2.6719291
0.4282525,0.555445036,2.679660749
0.42825375,0.551681305,2.687381315
0.428255,0.555445036,2.695090322
0.42825625,0.559208768,2.702787295
0.4282575,0.555445036,2.71047176
0.42825875,0.555445036,2.718143241
0.42826,0.559208768,2.725801267
0.42826125,0.5629725,2.733445364
0.4282625,0.559208768,2.741075061
0.42826375,0.559208768,2.748689887
0.428265,0.559208768,2.756289373
0.42826625,0.555445036,2.76387305
0.4282675,0.559208768,2.77144045
0.42826875,0.5629725,2.778991106
0.42827,0.566736231,2.786524553
0.42827125,0.566736231,2.794040325
0.4282725,0.566736231,2.80153796
0.42827375,0.566736231,2.809016994
0.428275,0.566736231,2.816476967
0.42827625,0.570499963,2.823917418
0.4282775,0.566736231,2.831337888
0.42827875,0.566736231,2.83873792
0.42828,0.574263695,2.846117057
0.42828125,0.570499963,2.853474844
0.4282825,0.574263695,2.860810826
0.42828375,0.574263695,2.868124553
0.428285,0.578027427,2.875415571
0.42828625,0.58555489,2.882683432
0.4282875,0.581791158,2.889927688
0.42828875,0.578027427,2.897147891
0.42829,0.578027427,2.904343596
0.42829125,0.581791158,2.911514359
0.4282925,0.581791158,2.918659738
0.42829375,0.581791158,2.925779292
0.428295,0.58555489,2.932872582
0.42829625,0.58555489,2.93993917
0.4282975,0.589318622,2.946978621
0.42829875,0.589318622,2.9539905
0.4283,0.589318622,2.960974375
0.42830125,0.596846085,2.967929814
0.4283025,0.593082354,2.97485639
0.42830375,0.589318622,2.981753674
0.428305,0.589318622,2.988621241
0.42830625,0.596846085,2.995458668
0.4283075,0.596846085,3.002265533
0.42830875,0.593082354,3.009041416
0.42831,0.600609817,3.015785898
0.42831125,0.596846085,3.022498565
0.4283125,0.600609817,3.029179001
0.42831375,0.596846085,3.035826795
0.428315,0.596846085,3.042441537
0.42831625,0.604373549,3.049022818
0.4283175,0.608137281,3.055570233
0.42831875,0.608137281,3.062083378
0.42832,0.615664744,3.068561851
0.42832125,0.619428476,3.075005252
0.4283225,0.623192208,3.081413184
0.42832375,0.615664744,3.087785252
0.428325,0.619428476,3.094121063
0.42832625,0.623192208,3.100420225
0.4283275,0.623192208,3.106682351
0.42832875,0.623192208,3.112907054
0.42833,0.623192208,3.119093949
0.42833125,0.619428476,3.125242656
0.4283325,0.619428476,3.131352795
0.42833375,0.626955939,3.13742399
0.428335,0.626955939,3.143455865
0.42833625,0.626955939,3.149448048
0.4283375,0.623192208,3.155400171
0.42833875,0.626955939,3.161311865
0.42834,0.623192208,3.167182767
0.42834125,0.623192208,3.173012514
0.4283425,0.623192208,3.178800746
0.42834375,0.626955939,3.184547106
0.428345,0.623192208,3.19025124
0.42834625,0.623192208,3.195912797
0.4283475,0.630719671,3.201531426
0.42834875,0.630719671,3.207106781
0.42835,0.630719671,3.212638519
0.42835125,0.626955939,3.218126298
0.4283525,0.626955939,3.223569779
0.42835375,0.630719671,3.228968627
0.428355,0.630719671,3.234322509
0.42835625,0.626955939,3.239631095
0.4283575,0.634483403,3.244894057
0.42835875,0.630719671,3.25011107
0.42836,0.634483403,3.255281812
0.42836125,0.634483403,3.260405966
0.4283625,0.630719671,3.265483213
0.42836375,0.634483403,3.270513243
0.428365,0.638247135,3.275495743
0.42836625,0.630719671,3.280430407
0.4283675,0.630719671,3.285316931
0.42836875,0.630719671,3.290155012
0.42837,0.630719671,3.294944353
0.42837125,0.634483403,3.299684658
0.4283725,0.626955939,3.304375635
0.42837375,0.630719671,3.309016994
0.428375,0.626955939,3.31360845
0.42837625,0.630719671,3.318149717
0.4283775,0.634483403,3.322640518
0.42837875,0.630719671,3.327080574
0.42838,0.630719671,3.331469612
0.42838125,0.630719671,3.335807361
0.4283825,0.626955939,3.340093554
0.42838375,0.630719671,3.344327926
0.428385,0.630719671,3.348510215
0.42838625,0.630719671,3.352640164
0.4283875,0.634483403,3.356717519
0.42838875,0.634483403,3.360742027
0.42839,0.630719671,3.364713441
0.42839125,0.626955939,3.368631514
0.4283925,0.623192208,3.372496007
0.42839375,0.634483403,3.37630668
0.428395,0.630719671,3.380063298
0.42839625,0.630719671,3.38376563
0.4283975,0.630719671,3.387413447
0.42839875,0.634483403,3.391006524
0.4284,0.634483403,3.39454464
0.42840125,0.630719671,3.398027576
0.4284025,0.634483403,3.401455117
0.42840375,0.634483403,3.404827052
0.428405,0.634483403,3.408143174
0.42840625,0.638247135,3.411403277
0.4284075,0.634483403,3.41460716
0.42840875,0.630719671,3.417754626
0.42841,0.634483403,3.42084548
0.42841125,0.634483403,3.423879533
0.4284125,0.630719671,3.426856596
0.42841375,0.630719671,3.429776486
0.428415,0.630719671,3.432639023
0.42841625,0.630719671,3.435444031
0.4284175,0.630719671,3.438191336
0.42841875,0.634483403,3.440880769
0.42842,0.626955939,3.443512164
0.42842125,0.630719671,3.446085359
0.4284225,0.630719671,3.448600195
0.42842375,0.630719671,3.451056516
0.428425,0.638247135,3.453454172
0.42842625,0.630719671,3.455793015
0.4284275,0.634483403,3.458072899
0.42842875,0.630719671,3.460293686
0.42843,0.630719671,3.462455236
0.42843125,0.634483403,3.464557418
0.4284325,0.630719671,3.466600102
0.42843375,0.634483403,3.468583161
