data/1.1.1k.c.csv

#Digilent WaveForms Oscilloscope Acquisition
#Device Name: Discovery2
#Serial Number: SN:210321AC1D4D
#Date Time: 2020-12-03 16:42:11.709
#Sample rate: 1.5873e+06Hz
#Samples: 8192
#Trigger: Source: Channel 1 Type: Edge Condition: Rising Level: 0 V Hyst.: Auto HoldOff: 0 s
#Channel 1: Range: 2 V/div Offset: 0 V Attenuation: 1 X
#Channel 2: Range: 2 V/div Offset: 0 V Attenuation: 1 X
#Wavegen Channel 1: Running
#Mode: Simple
#Type: Custom1
#Frequency: 1 kHz
#Period: 1 ms
#Amplitude: 1 V
#Offset: 2.1 V
#Phase: 0 ¡Æ
#Power Supplies: ON
#Positive Supply: ON
#Voltage: 5 V
#Negative Supply: ON
#Voltage: -5 V

Time (s),Channel 1 (V),Channel 2 (V)
0.44146746,0.5592087680104592,1.138034787589551
0.44146809,0.5629724997502015,1.134256694128961
0.44146872,0.5629724997502015,1.134256694128995
0.44146935,0.5629724997502015,1.141812881050113
0.44146998,0.5629724997502374,1.138034787589551
0.44147061,0.5667362314899436,1.138034787589551
0.44147124,0.5667362314898905,1.138034787589497
0.44147187,0.5629724997502631,1.134256694128961
0.4414725,0.5667362314900137,1.134256694128961
0.44147313,0.5704999632302368,1.13425669412904
0.44147376,0.5968460854087538,1.138034787589463
0.44147439,0.6344834028065486,1.134256694129057
0.4414750200000001,0.68341191542383,1.138034787589551
0.4414756500000001,0.7511590867399471,1.138034787589781
0.4414762800000001,0.8377249167545836,1.145590974511348
0.4414769100000001,0.9355819419884976,1.16448144181381
0.4414775400000001,1.044730162441128,1.168259535274127
0.4414781700000001,1.150114651154,1.164481441813528
0.4414788000000001,1.251735408127269,1.160703348353404
0.44147943,1.353356165091574,1.168259535273934
0.44148006,1.45497692206489,1.168259535274268
0.44148069,1.560361410777754,1.168259535274268
0.44148132,1.661982167751171,1.164481441813817
0.44148195,1.759839192984828,1.164481441813678
0.44148258,1.861459949957968,1.168259535274146
0.44148321,1.966844438670866,1.164481441813791
0.44148384,2.068465195644249,1.168259535274163
0.44148447,2.173849684357165,1.160703348353281
0.4414851,2.267942977851221,1.16448144181359
0.44148573,2.369563734824362,1.16825953527419
0.44148636,2.471184491797632,1.141812881050621
0.44148699,2.576568980510583,1.111588133365905
0.44148762,2.674426005744222,1.111588133365423
0.44148825,2.776046762717439,1.111588133365423
0.44148888,2.877667519690709,1.111588133365423
0.44148951,2.979288276663979,1.111588133365423
0.44149014,3.080909033637248,1.115366226825996
0.44149077,3.178766058870784,1.119144320286594
0.4414914,3.272859352364561,1.122922413747192
0.44149203,3.378243841077619,1.115366226826003
0.44149266,3.479864598050908,1.11158813336548
0.44149329,3.5852490867639,1.122922413747192
0.44149392,3.686869843737134,1.122922413747192
0.44149455,3.784726868970697,1.122922413747103
0.44149518,3.886347625943913,1.115366226826173
0.44149581,3.984204651177618,1.126700507207225
0.44149644,4.093352871630177,1.092697666061771
0.44149707,4.191209896863539,1.0549167314565
0.4414977,4.28153945861742,1.05113863799599
0.44149833,4.364341556891155,1.05113863799599
0.4414989600000001,4.41703380124724,1.051138637996096
0.4414995900000001,4.454671118643945,1.054916731456579
0.4415002200000001,4.465962313863074,1.054916731456579
0.4415008500000001,4.473489777342047,1.054916731456579
0.4415014800000001,4.465962313862406,1.054916731456579
0.4415021100000001,4.45467111864375,1.054916731456729
0.4415027400000001,4.458434850383186,1.058694824917169
0.4415033700000001,4.454671118643601,1.058694824917169
0.441504,4.454671118643601,1.058694824917169
0.44150463,4.450907386904006,1.058694824917169
0.44150526,4.454671118643462,1.058694824917169
0.44150589,4.458434850383213,1.058694824917169
0.44150652,4.462198582122963,1.047360544535766
0.44150715,4.458434850383456,1.0473605445354
0.44150778,4.450907386904067,1.0473605445354
0.44150841,4.450907386903858,1.051138637995895
0.44150904,4.454671118643516,1.05113863799599
0.44150967,4.454671118643601,1.047360544535477
0.4415103,4.450907386903927,1.0473605445354
0.44151093,4.454671118643541,1.05113863799593
0.44151156,4.454671118643601,1.047360544535452
0.44151219,4.454671118643601,1.043582451074853
0.44151282,4.450907386903893,1.04358245107481
0.44151345,4.454671118643575,1.04358245107481
0.44151408,4.458434850383326,1.047360544535383
0.44151471,4.458434850383343,1.0473605445354
0.44151534,4.454671118643599,1.047360544535402
0.44151597,4.450907386903848,1.051138637996134
0.4415166,4.447143655164135,1.104031946444358
0.44151723,4.450907386903831,1.126700507207754
0.44151786,4.447143655164081,1.122922413747228
0.44151849,4.443379923424419,1.126700507207826
0.44151912,4.447143655164116,1.130478600668318
0.44151975,4.447143655163993,1.126700507207844
0.44152038,4.439616191684632,1.130478600668371
0.44152101,4.439616191684632,1.130478600668371
0.44152164,4.439616191684721,1.130478600668193
0.44152227,4.443379923424277,1.122922413747192
0.4415229000000001,4.439616191684632,1.122922413747299
0.4415235300000001,4.439616191684517,1.126700507207897
0.4415241600000001,4.43585245994489,1.130478600668248
0.4415247900000001,4.435852459944758,1.126700507207782
0.4415254200000001,4.432088728205148,1.126700507207923
0.4415260500000001,4.432088728205449,1.130478600671093
0.4415266800000001,4.439616191684632,1.198484282960582
0.44152731,4.439616191684632,1.236265217563231
0.44152794,4.435852459945045,1.23626521756488
0.44152857,4.43585245994489,1.23626521756488
0.4415292,4.428324996465682,1.240043311025331
0.44152983,4.432088728205018,1.24004331102547
0.44153046,4.432088728205148,1.24004331102547
0.44153109,4.435852459944779,1.24004331102547
0.44153172,4.432088728205251,1.24004331102547
0.44153235,4.428324996465499,1.24004331102547
0.44153298,4.428324996465405,1.236265217564966
0.44153361,4.428324996465405,1.240043311025393
0.44153424,4.428324996465405,1.243821404485991
0.44153487,4.424561264725723,1.232487124104471
0.4415355,4.428324996465354,1.232487124104291
0.44153613,4.428324996465405,1.236265217564837
0.44153676,4.428324996465405,1.304270899854906
0.44153739,4.428324996465405,1.308048993316059
0.44153802,4.428324996465405,1.311827086776657
0.44153865,4.428324996465405,1.315605180237255
0.44153928,4.428324996465405,1.308048993316083
0.44153991,4.428324996465416,1.308048993316093
0.44154054,4.432088728205129,1.311827086776672
0.44154117,4.428324996465378,1.311827086776672
0.4415418,4.424561264725663,1.311827086776636
0.44154243,4.424561264725663,1.308048993316127
0.44154306,4.424561264725663,1.311827086776727
0.44154369,4.4245612647256,1.315605180237198
0.44154432,4.420797532985921,1.311827086776745
0.44154495,4.420797532985921,1.315605180237262
0.44154558,4.420797532985921,1.315605180237173
0.4415462100000001,4.420797532985824,1.311827086776281
0.4415468400000001,4.417033801246073,1.296714712934207
0.4415474700000001,4.413270069506437,1.292936619473839
0.4415481000000001,4.413270069506683,1.29671471293419
0.4415487300000001,4.420797532985921,1.29293661947359
0.4415493600000001,4.420797532986064,1.289158526013277
0.4415499900000001,4.424561264725362,1.292936619473724
0.4415506200000001,4.41703380124602,1.292936619473884
0.44155125,4.413270069506601,1.296714712934149
0.44155188,4.413270069506437,1.296714712934314
0.44155251,4.413270069506437,1.296714712934314
0.44155314,4.413270069506437,1.292936619473862
0.44155377,4.409506337766824,1.292936619473724
0.4415544,4.413270069506317,1.296714712934194
0.44155503,4.417033801246068,1.296714712934314
0.44155566,4.41327006950654,1.296714712934314
0.44155629,4.413270069506437,1.281602339092333
0.44155692,4.413270069506437,1.221152843723896
0.44155755,4.417033801246101,1.224930937183034
0.44155818,4.413270069506505,1.224930937183111
0.44155881,4.413270069506437,1.224930937183111
0.44155944,4.409506337766745,1.224930937183111
0.44156007,4.409506337766695,1.221152843722563
0.4415607,4.405742606026985,1.224930937183079
0.44156133,4.405742606026952,1.228709030643677
0.44156196,4.40950633776668,1.224930937183127
0.44156259,4.409506337766695,1.221152843722529
0.44156322,4.409506337766697,1.217374750261934
0.44156385,4.413270069506437,1.221152843722522
0.44156448,4.413270069506437,1.221152843722503
0.44156511,4.413270069506408,1.217374750261962
0.44156574,4.409506337766695,1.221152843722446
0.44156637,4.409506337766741,1.213596656800972
0.441567,4.413270069506382,1.183371909116626
0.44156763,4.409506337766695,1.183371909116562
0.44156826,4.409506337766695,1.179593815656036
0.44156889,4.409506337766695,1.179593815656198
0.44156952,4.409506337766606,1.187150002577215
0.4415701500000001,4.405742606026855,1.187150002577118
0.4415707800000001,4.401978874287316,1.183371909116626
0.4415714100000001,4.405742606026952,1.183371909116509
0.4415720400000001,4.405742606026827,1.179593815656036
0.4415726700000001,4.401978874287077,1.179593815656304
0.4415733000000001,4.398215142547611,1.187150002577073
0.4415739300000001,4.401978874287361,1.183371909116324
0.4415745600000001,4.405742606026952,1.175815722195606
0.44157519,4.405742606026952,1.179593815655871
0.44157582,4.405742606026952,1.183371909116471
0.44157645,4.401978874287356,1.202262376418844
0.44157708,4.40197887428721,1.221152843721835
0.44157771,4.40197887428721,1.224930937182983
0.44157834,4.40197887428721,1.221152843722642
0.44157897,4.40197887428721,1.217374750262044
0.4415796,4.40197887428721,1.213596656801446
0.44158023,4.398215142547563,1.213596656801343
0.44158086,4.401978874287125,1.217374750261846
0.44158149,4.398215142547544,1.217374750261932
0.44158212,4.398215142547468,1.221152843722455
0.44158275,4.401978874287152,1.221152843722522
0.44158338,4.405742606026902,1.213596656801442
0.44158401,4.401978874287251,1.217374750261891
0.44158464,4.40197887428721,1.217374750261932
0.44158527,4.398215142547492,1.217374750261932
0.4415859,4.398215142547468,1.217374750261932
0.44158653,4.398215142547468,1.258933778328343
0.44158716,4.39821514254747,1.326939460619031
0.44158779,4.40197887428721,1.326939460619019
0.44158842,4.40197887428721,1.323161367158421
0.44158905,4.401978874287181,1.319383273697881
0.44158968,4.398215142547431,1.323161367158441
0.44159031,4.394451410807772,1.323161367158441
0.44159094,4.398215142547524,1.323161367158441
0.44159157,4.401978874287147,1.323161367158505
0.4415922,4.39821514254754,1.326939460619103
0.44159283,4.40197887428705,1.330717554079459
0.44159346,4.394451410807726,1.32316136715835
0.4415940900000001,4.394451410807726,1.319383273697951
0.4415947200000001,4.394451410807833,1.323161367158333
0.4415953500000001,4.398215142547352,1.319383273697852
0.4415959800000001,4.394451410807726,1.319383273699984
0.4415966100000001,4.394451410807859,1.383610862528947
0.4415972400000001,4.398215142547468,1.413835610212734
0.4415978700000001,4.398215142547468,1.417613703673333
0.4415985000000001,4.398215142547786,1.421391797133611
0.44159913,4.405742606026627,1.417613703673344
0.44159976,4.405742606026952,1.417613703673181
0.44160039,4.401978874287356,1.421391797133625
0.44160102,4.398215142547605,1.417613703673319
0.44160165,4.390687679068241,1.421391797133642
0.44160228,4.394451410807606,1.421391797133771
0.44160291,4.398215142547357,1.417613703673293
0.44160354,4.398215142547468,1.417613703673181
0.44160417,4.398215142547468,1.413835610212685
0.4416048,4.398215142547468,1.413835610212592
0.44160543,4.398215142547468,1.417613703673106
0.44160606,4.401978874287144,1.417613703673181
0.44160669,4.40197887428721,1.432726077515306
0.44160732,4.398215142547518,1.440282264436619
0.44160795,4.401978874287169,1.440282264436719
0.44160858,4.40197887428721,1.447838451357833
0.44160921,4.394451410807774,1.444060357897333
0.44160984,4.398215142547453,1.447838451357883
0.44161047,4.394451410807731,1.451616544818483
0.4416111,4.394451410807729,1.447838451357898
0.44161173,4.398215142547457,1.447838451357898
0.44161236,4.394451410807726,1.447838451357877
0.44161299,4.394451410807726,1.444060357897309
0.44161362,4.394451410807763,1.444060357897271
0.44161425,4.398215142547422,1.440282264436719
0.44161488,4.394451410807726,1.440282264436719
0.44161551,4.394451410807789,1.440282264436656
0.44161614,4.398215142547468,1.436504170975169
0.44161677,4.398215142547387,1.387388955988299
0.4416174,4.394451410807726,1.379832769067285
0.4416180300000001,4.394451410807726,1.379832769067385
0.4416186600000001,4.394451410807833,1.383610862527983
0.4416192900000001,4.398215142547352,1.387388955988464
0.4416199200000001,4.3944514108076,1.387388955988464
0.4416205500000001,4.390687679067984,1.38738895598833
0.4416211800000001,4.390687679068126,1.383610862528017
0.4416218100000001,4.394451410807726,1.387388955988313
0.4416224400000001,4.394451410807565,1.383610862527875
0.44162307,4.390687679068146,1.383610862527875
0.4416237,4.390687679067984,1.38738895598831
0.44162433,4.386923947328388,1.379832769067577
0.44162496,4.394451410807452,1.379832769067285
0.44162559,4.39821514254734,1.383610862527746
0.44162622,4.398215142547468,1.379832769067406
0.44162685,4.398215142547468,1.33071755408105
0.44162748,4.394451410807827,1.315605180237667
0.44162811,4.398215142547376,1.315605180237262
0.44162874,4.398215142547468,1.315605180237262
0.44162937,4.394451410807801,1.315605180237262
0.44163,4.398215142547402,1.319383273697785
0.44163063,4.398215142547468,1.31560518023732
0.44163126,4.394451410807775,1.315605180237262
0.44163189,4.398215142547428,1.315605180237262
0.44163252,4.390687679068045,1.315605180237262
0.44163315,4.394451410807704,1.319383273697829
0.44163378,4.390687679067997,1.319383273697852
0.44163441,4.390687679067984,1.315605180237267
0.44163504,4.394451410807729,1.323161367158441
0.44163567,4.398215142547468,1.323161367158417
0.4416363,4.398215142547468,1.315605180237262
0.44163693,4.398215142547498,1.315605180237291
0.44163756,4.40197887428721,1.319383273697889
0.44163819,4.401978874287164,1.323161367158441
0.44163882,4.398215142547412,1.323161367158271
0.44163945,4.394451410807791,1.311827086776672
0.44164008,4.398215142547542,1.31182708677682
0.44164071,4.40197887428721,1.319383273697852
0.44164134,4.40197887428712,1.319383273697852
0.4416419700000001,4.398215142547468,1.319383273697752
0.4416426000000001,4.398215142547361,1.315605180237262
0.4416432300000001,4.394451410807842,1.315605180237379
0.4416438600000001,4.398215142547343,1.319383273697726
0.4416444900000001,4.394451410807726,1.315605180237262
0.4416451200000001,4.394451410807582,1.315605180237262
0.4416457500000001,4.390687679068137,1.315605180237568
0.4416463800000001,4.394451410807726,1.32316136716151
0.44164701,4.394451410807726,1.394945142906543
0.44164764,4.394451410807726,1.398723236370079
0.44164827,4.394451410807726,1.398723236370233
0.4416489,4.394451410807726,1.394945142909779
0.44164953,4.394451410807726,1.394945142909644
0.44165016,4.394451410807726,1.391167049449173
0.44165079,4.394451410807726,1.394945142909534
0.44165142,4.398215142547367,1.394945142909644
0.44165205,4.398215142547468,1.391167049449147
0.44165268,4.394451410807809,1.398723236370065
0.44165331,4.394451410807726,1.402501329830747
0.44165394,4.394451410807726,1.3987232363703
0.44165457,4.39821514254741,1.398723236370233
0.4416552,4.394451410807774,1.39116704944915
0.44165583,4.394451410807726,1.391167049449054
0.44165646,4.394451410807726,1.436504170975758
0.44165709,4.398215142547446,1.50450985326634
0.44165772,4.398215142547468,1.508287946727318
0.44165835,4.401978874287205,1.508287946727332
0.44165898,4.398215142547468,1.508287946727332
0.44165961,4.39821514254748,1.508287946727332
0.44166024,4.40197887428721,1.508287946727311
0.44166087,4.401978874287179,1.504509853266773
0.4416615,4.398215142547468,1.508287946727371
0.44166213,4.398215142547516,1.512066040187921
0.44166276,4.40197887428721,1.512066040187865
0.44166339,4.401978874287275,1.508287946727462
0.44166402,4.405742606026879,1.515844133648437
0.44166465,4.401978874287129,1.512066040188004
0.44166528,4.398215142547468,1.515844133648511
0.4416659100000001,4.398215142547369,1.51584413364881
0.4416665400000001,4.394451410807726,1.52717841403147
0.4416671700000001,4.394451410807726,1.568737442096765
0.4416678000000001,4.394451410807726,1.568737442096765
0.4416684300000001,4.394451410807726,1.56873744209663
0.4416690600000001,4.394451410807726,1.56495934863632
0.4416696900000001,4.394451410807726,1.568737442096612
0.4416703200000001,4.394451410807726,1.564959348636499
0.44167095,4.394451410807726,1.572515535557029
0.44167158,4.401978874286906,1.568737442096918
0.44167221,4.40197887428721,1.56495934863632
0.44167284,4.394451410807996,1.564959348636176
0.44167347,4.390687679068111,1.568737442096638
0.4416741,4.394451410807608,1.564959348636294
0.44167473,4.390687679068093,1.564959348636176
0.44167536,4.394451410807624,1.568737442096664
0.44167599,4.398215142547376,1.568737442096765
0.44167662,4.398215142547468,1.549846974794238
0.44167725,4.398215142547468,1.542290787872789
0.44167788,4.398215142547468,1.538512694412114
0.44167851,4.398215142547468,1.542290787872582
0.44167914,4.394451410807774,1.542290787872638
0.44167977,4.390687679068023,1.538512694412088
0.4416804,4.390687679067984,1.538512694412049
0.44168103,4.390687679067984,1.538512694412049
0.44168166,4.394451410807712,1.542290787872624
0.44168229,4.394451410807726,1.542290787872638
0.44168292,4.394451410807726,1.538512694412049
0.44168355,4.394451410807726,1.538512694412062
0.44168418,4.394451410807726,1.542290787872638
0.44168481,4.394451410807695,1.542290787872638
0.44168544,4.390687679067984,1.542290787872638
0.44168607,4.390687679068032,1.542290787872109
0.4416867,4.394451410807726,1.500731759805699
0.44168733,4.394451410807791,1.47050701212137
0.44168796,4.398215142547468,1.466728918660994
0.44168859,4.39821514254755,1.474285105582025
0.44168922,4.401978874287118,1.474285105581933
0.4416898500000001,4.398215142547468,1.470507012121436
0.4416904800000001,4.398215142547578,1.470507012121436
0.4416911100000001,4.401978874286974,1.470507012121554
0.4416917400000001,4.394451410807726,1.474285105582025
0.4416923700000001,4.394451410807726,1.474285105582025
0.4416930000000001,4.39445141080787,1.47428510558217
0.4416936300000001,4.398215142547164,1.478063199042615
0.4416942600000001,4.390687679067984,1.478063199042454
0.44169489,4.390687679067984,1.474285105582187
0.44169552,4.390687679067984,1.478063199042462
0.44169615,4.390687679067984,1.470507012121724
0.44169678,4.394451410807591,1.440282264437805
0.44169741,4.398215142547341,1.432726077515794
0.44169804,4.398215142547468,1.43272607751554
0.44169867,4.394451410807835,1.43272607751554
0.4416993,4.394451410807726,1.428947984055052
0.44169993,4.394451410807726,1.432726077515449
0.44170056,4.394451410807726,1.436504170976047
0.44170119,4.394451410807726,1.432726077515614
0.44170182,4.394451410807726,1.436504170976064
0.44170245,4.390687679068041,1.428947984055064
0.44170308,4.390687679067984,1.432726077515492
0.44170371,4.394451410807687,1.43272607751554
0.44170434,4.394451410807726,1.428947984054981
0.44170497,4.390687679068006,1.432726077515517
0.4417056,4.398215142547441,1.428947984054964
0.44170623,4.398215142547468,1.42894798405495
0.44170686,4.394451410807726,1.466728918660867
0.44170749,4.394451410807726,1.481841292503191
0.44170812,4.394451410807748,1.478063199042615
0.44170875,4.3982151425475,1.478063199042615
0.44170938,4.401978874287171,1.478063199042654
0.44171001,4.398215142547468,1.481841292503108
0.44171064,4.398215142547412,1.474285105582082
0.44171127,4.394451410807726,1.478063199042615
0.4417119,4.394451410807801,1.47806319904269
0.44171253,4.398215142547468,1.48184129250312
0.44171316,4.398215142547468,1.478063199042708
0.4417137900000001,4.398215142547468,1.481841292503103
0.4417144200000001,4.398215142547249,1.478063199042615
0.4417150500000001,4.390687679068102,1.478063199042615
0.4417156800000001,4.394451410807853,1.478063199044141
0.4417163100000001,4.398215142547333,1.523400320571862
0.4417169400000001,4.394451410807582,1.583849815939124
0.4417175700000001,4.390687679067831,1.583849815939277
0.4417182000000001,4.386923947328405,1.58762790939955
