data/1.1.1k.t.csv

#Digilent WaveForms Oscilloscope Acquisition,,
#Device Name: Discovery2,,
#Serial Number: SN:210321AC1D4D,,
#Date Time: 2020-12-03 16:50:45.712,,
#Sample rate: 1.5873e+06Hz,,
#Samples: 8192,,
#Trigger: Source: Channel 1 Type: Edge Condition: Rising Level: 0 V Hyst.: Auto HoldOff: 0 s,,
#Channel 1: Range: 2 V/div Offset: 0 V Attenuation: 1 X,,
#Channel 2: Range: 2 V/div Offset: 0 V Attenuation: 1 X,,
#Wavegen Channel 1: Running,,
#Mode: Simple,,
#Type: Triangle,,
#Frequency: 1 kHz,,
#Period: 1 ms,,
#Amplitude: 1 V,,
#Offset: 2.5 V,,
#Symmetry: 50 %,,
#Phase: 0 ¡Æ,,
#Power Supplies: ON,,
#Positive Supply: ON,,
#Voltage: 5 V,,
#Negative Supply: ON,,
#Voltage: -5 V,,
,,
Time (s),Channel 1 (V),Channel 2 (V)
0.44183412,0.58555489,2.5
0.44183475,0.600609817,2.49748
0.44183538,0.619428476,2.49496
0.44183601,0.645774598,2.49244
0.44183664,0.675884452,2.48992
0.44183727,0.709758038,2.4874
0.4418379,0.75868655,2.48488
0.44183853,0.815142526,2.48236
0.44183916,0.875362234,2.47984
0.44183979,0.943109405,2.47732
0.44184042,1.007092845,2.4748
0.44184105,1.074840016,2.47228
0.44184168,1.142587188,2.46976
0.44184231,1.210334359,2.46724
0.44184294,1.270554067,2.46472
0.44184357,1.334537506,2.4622
0.4418442,1.409812141,2.45968
0.44184483,1.470031849,2.45716
0.44184546,1.53777902,2.45464
0.44184609,1.605526192,2.45212
0.44184672,1.677037095,2.4496
0.44184735,1.741020534,2.44708
0.44184798,1.805003974,2.44456
0.44184861,1.872751145,2.44204
0.44184924,1.940498316,2.43952
0.44184987,2.008245488,2.437
0.4418505,2.079756391,2.43448
0.44185113,2.147503562,2.43196
0.44185176,2.219014465,2.42944
0.44185239,2.282997905,2.42692
0.44185302,2.350745076,2.4244
0.44185365,2.422255979,2.42188
0.44185428,2.493766882,2.41936
0.44185491,2.561514054,2.41684
0.44185554,2.621733761,2.41432
0.44185617,2.681953469,2.4118
0.4418568,2.749700641,2.40928
0.44185743,2.824975275,2.40676
0.44185806,2.888958715,2.40424
0.44185869,2.96423335,2.40172
0.44185932,3.031980521,2.3992
0.44185995,3.099727692,2.39668
0.44186058,3.171238595,2.39416
0.44186121,3.235222035,2.39164
0.44186184,3.302969206,2.38912
0.44186247,3.378243841,2.3866
0.4418631,3.445991012,2.38408
0.44186373,3.513738184,2.38156
0.44186436,3.577721623,2.37904
0.44186499,3.645468795,2.37652
0.44186562,3.713215966,2.374
0.44186625,3.780963137,2.37148
0.44186688,3.848710309,2.36896
0.44186751,3.920221212,2.36644
0.44186814,3.991732115,2.36392
0.44186877,4.063243018,2.3614
0.4418694,4.130990189,2.35888
0.44187003,4.194973629,2.35636
0.44187066,4.258957068,2.35384
0.44187129,4.319176776,2.35132
0.44187192,4.360577825,2.3488
0.44187255,4.401978874,2.34628
0.44187318,4.432088728,2.34376
0.44187381,4.450907387,2.34124
0.44187444,4.465962314,2.33872
0.44187507,4.469726046,2.3362
0.4418757,4.45843485,2.33368
0.44187633,4.45843485,2.33116
0.44187696,4.454671119,2.32864
0.44187759,4.454671119,2.32612
0.44187822,4.450907387,2.3236
0.44187885,4.450907387,2.32108
0.44187948,4.450907387,2.31856
0.44188011,4.450907387,2.31604
0.44188074,4.450907387,2.31352
0.44188137,4.447143655,2.311
0.441882,4.443379923,2.30848
0.44188263,4.447143655,2.30596
0.44188326,4.447143655,2.30344
0.44188389,4.443379923,2.30092
0.44188452,4.443379923,2.2984
0.44188515,4.443379923,2.29588
0.44188578,4.443379923,2.29336
0.44188641,4.443379923,2.29084
0.44188704,4.443379923,2.28832
0.44188767,4.443379923,2.2858
0.4418883,4.443379923,2.28328
0.44188893,4.439616192,2.28076
0.44188956,4.439616192,2.27824
0.44189019,4.443379923,2.27572
0.44189082,4.447143655,2.2732
0.44189145,4.443379923,2.27068
0.44189208,4.443379923,2.26816
0.44189271,4.439616192,2.26564
0.44189334,4.443379923,2.26312
0.44189397,4.443379923,2.2606
0.4418946,4.43585246,2.25808
0.44189523,4.439616192,2.25556
0.44189586,4.43585246,2.25304
0.44189649,4.432088728,2.25052
0.44189712,4.432088728,2.248
0.44189775,4.43585246,2.24548
0.44189838,4.432088728,2.24296
0.44189901,4.432088728,2.24044
0.44189964,4.432088728,2.23792
0.44190027,4.432088728,2.2354
0.4419009,4.432088728,2.23288
0.44190153,4.432088728,2.23036
0.44190216,4.428324996,2.22784
0.44190279,4.424561265,2.22532
0.44190342,4.424561265,2.2228
0.44190405,4.432088728,2.22028
0.44190468,4.424561265,2.21776
0.44190531,4.420797533,2.21524
0.44190594,4.420797533,2.21272
0.44190657,4.420797533,2.2102
0.4419072,4.420797533,2.20768
0.44190783,4.424561265,2.20516
0.44190846,4.428324996,2.20264
0.44190909,4.428324996,2.20012
0.44190972,4.420797533,2.1976
0.44191035,4.424561265,2.19508
0.44191098,4.424561265,2.19256
0.44191161,4.424561265,2.19004
0.44191224,4.420797533,2.18752
0.44191287,4.417033801,2.185
0.4419135,4.417033801,2.18248
0.44191413,4.417033801,2.17996
0.44191476,4.420797533,2.17744
0.44191539,4.417033801,2.17492
0.44191602,4.420797533,2.1724
0.44191665,4.417033801,2.16988
0.44191728,4.41327007,2.16736
0.44191791,4.41327007,2.16484
0.44191854,4.41327007,2.16232
0.44191917,4.41327007,2.1598
0.4419198,4.409506338,2.15728
0.44192043,4.405742606,2.15476
0.44192106,4.409506338,2.15224
0.44192169,4.409506338,2.14972
0.44192232,4.409506338,2.1472
0.44192295,4.409506338,2.14468
0.44192358,4.409506338,2.14216
0.44192421,4.409506338,2.13964
0.44192484,4.409506338,2.13712
0.44192547,4.409506338,2.1346
0.4419261,4.41327007,2.13208
0.44192673,4.41327007,2.12956
0.44192736,4.409506338,2.12704
0.44192799,4.409506338,2.12452
0.44192862,4.405742606,2.122
0.44192925,4.405742606,2.11948
0.44192988,4.405742606,2.11696
0.44193051,4.409506338,2.11444
0.44193114,4.405742606,2.11192
0.44193177,4.409506338,2.1094
0.4419324,4.409506338,2.10688
0.44193303,4.405742606,2.10436
0.44193366,4.405742606,2.10184
0.44193429,4.405742606,2.09932
0.44193492,4.401978874,2.0968
0.44193555,4.405742606,2.09428
0.44193618,4.409506338,2.09176
0.44193681,4.409506338,2.08924
0.44193744,4.405742606,2.08672
0.44193807,4.398215143,2.0842
0.4419387,4.401978874,2.08168
0.44193933,4.405742606,2.07916
0.44193996,4.398215143,2.07664
0.44194059,4.398215143,2.07412
0.44194122,4.401978874,2.0716
0.44194185,4.401978874,2.06908
0.44194248,4.401978874,2.06656
0.44194311,4.401978874,2.06404
0.44194374,4.401978874,2.06152
0.44194437,4.398215143,2.059
0.441945,4.401978874,2.05648
0.44194563,4.401978874,2.05396
0.44194626,4.401978874,2.05144
0.44194689,4.401978874,2.04892
0.44194752,4.401978874,2.0464
0.44194815,4.398215143,2.04388
0.44194878,4.394451411,2.04136
0.44194941,4.398215143,2.03884
0.44195004,4.405742606,2.03632
0.44195067,4.401978874,2.0338
0.4419513,4.398215143,2.03128
0.44195193,4.394451411,2.02876
0.44195256,4.398215143,2.02624
0.44195319,4.401978874,2.02372
0.44195382,4.401978874,2.0212
0.44195445,4.398215143,2.01868
0.44195508,4.398215143,2.01616
0.44195571,4.401978874,2.01364
0.44195634,4.398215143,2.01112
0.44195697,4.398215143,2.0086
0.4419576,4.398215143,2.00608
0.44195823,4.394451411,2.00356
0.44195886,4.398215143,2.00104
0.44195949,4.401978874,1.99852
0.44196012,4.401978874,1.996
0.44196075,4.401978874,1.99348
0.44196138,4.398215143,1.99096
0.44196201,4.394451411,1.98844
0.44196264,4.390687679,1.98592
0.44196327,4.394451411,1.9834
0.4419639,4.398215143,1.98088
0.44196453,4.398215143,1.97836
0.44196516,4.398215143,1.97584
0.44196579,4.398215143,1.97332
0.44196642,4.394451411,1.9708
0.44196705,4.390687679,1.96828
0.44196768,4.390687679,1.96576
0.44196831,4.390687679,1.96324
0.44196894,4.390687679,1.96072
0.44196957,4.394451411,1.9582
0.4419702,4.398215143,1.95568
0.44197083,4.394451411,1.95316
0.44197146,4.390687679,1.95064
0.44197209,4.390687679,1.94812
0.44197272,4.398215143,1.9456
0.44197335,4.398215143,1.94308
0.44197398,4.394451411,1.94056
0.44197461,4.398215143,1.93804
0.44197524,4.394451411,1.93552
0.44197587,4.398215143,1.933
0.4419765,4.398215143,1.93048
0.44197713,4.390687679,1.92796
0.44197776,4.394451411,1.92544
0.44197839,4.398215143,1.92292
0.44197902,4.405742606,1.9204
0.44197965,4.401978874,1.91788
0.44198028,4.398215143,1.91536
0.44198091,4.394451411,1.91284
0.44198154,4.394451411,1.91032
0.44198217,4.390687679,1.9078
0.4419828,4.390687679,1.90528
0.44198343,4.398215143,1.90276
0.44198406,4.398215143,1.90024
0.44198469,4.398215143,1.89772
0.44198532,4.398215143,1.8952
0.44198595,4.390687679,1.89268
0.44198658,4.394451411,1.89016
0.44198721,4.394451411,1.88764
0.44198784,4.394451411,1.88512
0.44198847,4.394451411,1.8826
0.4419891,4.390687679,1.88008
0.44198973,4.394451411,1.87756
0.44199036,4.394451411,1.87504
0.44199099,4.398215143,1.87252
0.44199162,4.398215143,1.87
0.44199225,4.394451411,1.86748
0.44199288,4.401978874,1.86496
0.44199351,4.398215143,1.86244
0.44199414,4.394451411,1.85992
0.44199477,4.394451411,1.8574
0.4419954,4.394451411,1.85488
0.44199603,4.398215143,1.85236
0.44199666,4.398215143,1.84984
0.44199729,4.394451411,1.84732
0.44199792,4.394451411,1.8448
0.44199855,4.394451411,1.84228
0.44199918,4.394451411,1.83976
0.44199981,4.390687679,1.83724
0.44200044,4.394451411,1.83472
0.44200107,4.394451411,1.8322
0.4420017,4.394451411,1.82968
0.44200233,4.390687679,1.82716
0.44200296,4.390687679,1.82464
0.44200359,4.390687679,1.82212
0.44200422,4.390687679,1.8196
0.44200485,4.390687679,1.81708
0.44200548,4.390687679,1.81456
0.44200611,4.390687679,1.81204
0.44200674,4.390687679,1.80952
0.44200737,4.390687679,1.807
0.442008,4.394451411,1.80448
0.44200863,4.394451411,1.80196
0.44200926,4.390687679,1.79944
0.44200989,4.390687679,1.79692
0.44201052,4.386923947,1.7944
0.44201115,4.386923947,1.79188
0.44201178,4.394451411,1.78936
0.44201241,4.394451411,1.78684
0.44201304,4.394451411,1.78432
0.44201367,4.390687679,1.7818
0.4420143,4.386923947,1.77928
0.44201493,4.390687679,1.77676
0.44201556,4.394451411,1.77424
0.44201619,4.398215143,1.77172
0.44201682,4.394451411,1.7692
0.44201745,4.394451411,1.76668
0.44201808,4.390687679,1.76416
0.44201871,4.390687679,1.76164
0.44201934,4.386923947,1.75912
0.44201997,4.390687679,1.7566
0.4420206,4.390687679,1.75408
0.44202123,4.398215143,1.75156
0.44202186,4.394451411,1.74904
0.44202249,4.390687679,1.74652
0.44202312,4.386923947,1.744
0.44202375,4.390687679,1.74148
0.44202438,4.390687679,1.73896
0.44202501,4.394451411,1.73644
0.44202564,4.394451411,1.73392
0.44202627,4.394451411,1.7314
0.4420269,4.390687679,1.72888
0.44202753,4.386923947,1.72636
0.44202816,4.390687679,1.72384
0.44202879,4.390687679,1.72132
0.44202942,4.394451411,1.7188
0.44203005,4.390687679,1.71628
0.44203068,4.390687679,1.71376
0.44203131,4.390687679,1.71124
0.44203194,4.386923947,1.70872
0.44203257,4.390687679,1.7062
0.4420332,4.390687679,1.70368
0.44203383,4.390687679,1.70116
0.44203446,4.394451411,1.69864
0.44203509,4.390687679,1.69612
0.44203572,4.394451411,1.6936
0.44203635,4.390687679,1.69108
0.44203698,4.394451411,1.68856
0.44203761,4.390687679,1.68604
0.44203824,4.390687679,1.68352
0.44203887,4.390687679,1.681
0.4420395,4.390687679,1.67848
0.44204013,4.390687679,1.67596
0.44204076,4.390687679,1.67344
0.44204139,4.390687679,1.67092
0.44204202,4.390687679,1.6684
0.44204265,4.386923947,1.66588
0.44204328,4.390687679,1.66336
0.44204391,4.390687679,1.66084
0.44204454,4.394451411,1.65832
0.44204517,4.390687679,1.6558
0.4420458,4.390687679,1.65328
0.44204643,4.390687679,1.65076
0.44204706,4.394451411,1.64824
0.44204769,4.398215143,1.64572
0.44204832,4.394451411,1.6432
0.44204895,4.394451411,1.64068
0.44204958,4.394451411,1.63816
0.44205021,4.390687679,1.63564
0.44205084,4.390687679,1.63312
0.44205147,4.394451411,1.6306
0.4420521,4.394451411,1.62808
0.44205273,4.394451411,1.62556
0.44205336,4.394451411,1.62304
0.44205399,4.394451411,1.62052
0.44205462,4.394451411,1.618
0.44205525,4.394451411,1.61548
0.44205588,4.390687679,1.61296
0.44205651,4.394451411,1.61044
0.44205714,4.390687679,1.60792
0.44205777,4.390687679,1.6054
0.4420584,4.394451411,1.60288
0.44205903,4.390687679,1.60036
0.44205966,4.390687679,1.59784
0.44206029,4.394451411,1.59532
0.44206092,4.394451411,1.5928
0.44206155,4.390687679,1.59028
0.44206218,4.390687679,1.58776
0.44206281,4.390687679,1.58524
0.44206344,4.390687679,1.58272
0.44206407,4.386923947,1.5802
0.4420647,4.386923947,1.57768
0.44206533,4.390687679,1.57516
0.44206596,4.394451411,1.57264
0.44206659,4.390687679,1.57012
0.44206722,4.390687679,1.5676
0.44206785,4.394451411,1.56508
0.44206848,4.394451411,1.56256
0.44206911,4.390687679,1.56004
0.44206974,4.390687679,1.55752
0.44207037,4.390687679,1.555
0.442071,4.390687679,1.55248
0.44207163,4.386923947,1.54996
0.44207226,4.390687679,1.54744
0.44207289,4.390687679,1.54492
0.44207352,4.390687679,1.5424
0.44207415,4.386923947,1.53988
0.44207478,4.386923947,1.53736
0.44207541,4.386923947,1.53484
0.44207604,4.390687679,1.53232
0.44207667,4.394451411,1.5298
0.4420773,4.394451411,1.52728
0.44207793,4.394451411,1.52476
0.44207856,4.398215143,1.52224
0.44207919,4.394451411,1.51972
0.44207982,4.394451411,1.5172
0.44208045,4.394451411,1.51468
0.44208108,4.398215143,1.51216
0.44208171,4.394451411,1.50964
0.44208234,4.394451411,1.50712
0.44208297,4.394451411,1.5046
0.4420836,4.398215143,1.50208
0.44208423,4.394451411,1.5
0.44208486,4.390687679,1.50252
0.44208549,4.386923947,1.50504
0.44208612,4.386923947,1.50756
0.44208675,4.386923947,1.51008
0.44208738,4.386923947,1.5126
0.44208801,4.390687679,1.51512
0.44208864,4.390687679,1.51764
0.44208927,4.394451411,1.52016
0.4420899,4.398215143,1.52268
0.44209053,4.398215143,1.5252
0.44209116,4.390687679,1.52772
0.44209179,4.386923947,1.53024
0.44209242,4.383160216,1.53276
0.44209305,4.383160216,1.53528
0.44209368,4.386923947,1.5378
0.44209431,4.390687679,1.54032
0.44209494,4.390687679,1.54284
0.44209557,4.390687679,1.54536
0.4420962,4.394451411,1.54788
0.44209683,4.394451411,1.5504
0.44209746,4.390687679,1.55292
0.44209809,4.390687679,1.55544
0.44209872,4.390687679,1.55796
0.44209935,4.386923947,1.56048
0.44209998,4.394451411,1.563
0.44210061,4.394451411,1.56552
0.44210124,4.394451411,1.56804
0.44210187,4.394451411,1.57056
0.4421025,4.394451411,1.57308
0.44210313,4.390687679,1.5756
0.44210376,4.390687679,1.57812
0.44210439,4.386923947,1.58064
0.44210502,4.394451411,1.58316
0.44210565,4.394451411,1.58568
0.44210628,4.401978874,1.5882
0.44210691,4.398215143,1.59072
0.44210754,4.394451411,1.59324
0.44210817,4.394451411,1.59576
0.4421088,4.398215143,1.59828
0.44210943,4.394451411,1.6008
0.44211006,4.390687679,1.60332
0.44211069,4.386923947,1.60584
0.44211132,4.386923947,1.60836
0.44211195,4.386923947,1.61088
0.44211258,4.390687679,1.6134
0.44211321,4.390687679,1.61592
0.44211384,4.390687679,1.61844
0.44211447,4.390687679,1.62096
0.4421151,4.394451411,1.62348
0.44211573,4.394451411,1.626
0.44211636,4.394451411,1.62852
0.44211699,4.398215143,1.63104
0.44211762,4.398215143,1.63356
0.44211825,4.394451411,1.63608
0.44211888,4.390687679,1.6386
0.44211951,4.390687679,1.64112
0.44212014,4.390687679,1.64364
0.44212077,4.390687679,1.64616
0.4421214,4.390687679,1.64868
0.44212203,4.390687679,1.6512
0.44212266,4.386923947,1.65372
0.44212329,4.390687679,1.65624
0.44212392,4.386923947,1.65876
0.44212455,4.386923947,1.66128
0.44212518,4.394451411,1.6638
0.44212581,4.394451411,1.66632
0.44212644,4.394451411,1.66884
0.44212707,4.394451411,1.67136
0.4421277,4.390687679,1.67388
0.44212833,4.394451411,1.6764
0.44212896,4.394451411,1.67892
0.44212959,4.394451411,1.68144
0.44213022,4.390687679,1.68396
0.44213085,4.390687679,1.68648
0.44213148,4.394451411,1.689
0.44213211,4.398215143,1.69152
0.44213274,4.398215143,1.69404
0.44213337,4.394451411,1.69656
0.442134,4.390687679,1.69908
0.44213463,4.394451411,1.7016
0.44213526,4.394451411,1.70412
0.44213589,4.394451411,1.70664
0.44213652,4.394451411,1.70916
0.44213715,4.390687679,1.71168
0.44213778,4.390687679,1.7142
0.44213841,4.394451411,1.71672
0.44213904,4.394451411,1.71924
0.44213967,4.390687679,1.72176
0.4421403,4.390687679,1.72428
0.44214093,4.390687679,1.7268
0.44214156,4.394451411,1.72932
0.44214219,4.390687679,1.73184
0.44214282,4.394451411,1.73436
0.44214345,4.394451411,1.73688
0.44214408,4.394451411,1.7394
0.44214471,4.398215143,1.74192
0.44214534,4.394451411,1.74444
0.44214597,4.394451411,1.74696
0.4421466,4.394451411,1.74948
0.44214723,4.398215143,1.752
0.44214786,4.394451411,1.75452
0.44214849,4.398215143,1.75704
0.44214912,4.398215143,1.75956
0.44214975,4.394451411,1.76208
0.44215038,4.394451411,1.7646
0.44215101,4.394451411,1.76712
0.44215164,4.394451411,1.76964
0.44215227,4.394451411,1.77216
0.4421529,4.398215143,1.77468
0.44215353,4.394451411,1.7772
0.44215416,4.398215143,1.77972
0.44215479,4.398215143,1.78224
0.44215542,4.401978874,1.78476
0.44215605,4.394451411,1.78728
0.44215668,4.386923947,1.7898
0.44215731,4.386923947,1.79232
0.44215794,4.386923947,1.79484
0.44215857,4.390687679,1.79736
0.4421592,4.390687679,1.79988
0.44215983,4.390687679,1.8024
0.44216046,4.390687679,1.80492
0.44216109,4.386923947,1.80744
0.44216172,4.390687679,1.80996
0.44216235,4.394451411,1.81248
0.44216298,4.390687679,1.815
0.44216361,4.390687679,1.81752
0.44216424,4.394451411,1.82004
0.44216487,4.394451411,1.82256
0.4421655,4.390687679,1.82508
0.44216613,4.394451411,1.8276
0.44216676,4.394451411,1.83012
0.44216739,4.390687679,1.83264
0.44216802,4.394451411,1.83516
0.44216865,4.394451411,1.83768
0.44216928,4.390687679,1.8402
0.44216991,4.390687679,1.84272
0.44217054,4.386923947,1.84524
0.44217117,4.390687679,1.84776
0.4421718,4.390687679,1.85028
0.44217243,4.390687679,1.8528
0.44217306,4.394451411,1.85532
0.44217369,4.394451411,1.85784
0.44217432,4.394451411,1.86036
0.44217495,4.394451411,1.86288
0.44217558,4.394451411,1.8654
0.44217621,4.394451411,1.86792
0.44217684,4.394451411,1.87044
0.44217747,4.390687679,1.87296
0.4421781,4.386923947,1.87548
0.44217873,4.390687679,1.878
0.44217936,4.394451411,1.88052
0.44217999,4.394451411,1.88304
0.44218062,4.390687679,1.88556
0.44218125,4.390687679,1.88808
0.44218188,4.394451411,1.8906
0.44218251,4.394451411,1.89312
0.44218314,4.394451411,1.89564
0.44218377,4.390687679,1.89816
0.4421844,4.390687679,1.90068
0.44218503,4.390687679,1.9032
0.44218566,4.398215143,1.90572
0.44218629,4.398215143,1.90824
0.44218692,4.394451411,1.91076
0.44218755,4.398215143,1.91328
0.44218818,4.394451411,1.9158
0.44218881,4.390687679,1.91832
0.44218944,4.398215143,1.92084
0.44219007,4.394451411,1.92336
0.4421907,4.390687679,1.92588
0.44219133,4.390687679,1.9284
0.44219196,4.394451411,1.93092
0.44219259,4.394451411,1.93344
0.44219322,4.390687679,1.93596
0.44219385,4.390687679,1.93848
0.44219448,4.390687679,1.941
0.44219511,4.394451411,1.94352
0.44219574,4.394451411,1.94604
0.44219637,4.394451411,1.94856
0.442197,4.394451411,1.95108
0.44219763,4.394451411,1.9536
0.44219826,4.390687679,1.95612
0.44219889,4.390687679,1.95864
0.44219952,4.390687679,1.96116
0.44220015,4.394451411,1.96368
0.44220078,4.394451411,1.9662
0.44220141,4.390687679,1.96872
0.44220204,4.390687679,1.97124
0.44220267,4.390687679,1.97376
0.4422033,4.390687679,1.97628
0.44220393,4.390687679,1.9788
0.44220456,4.390687679,1.98132
0.44220519,4.394451411,1.98384
0.44220582,4.394451411,1.98636
0.44220645,4.390687679,1.98888
0.44220708,4.390687679,1.9914
0.44220771,4.386923947,1.99392
0.44220834,4.390687679,1.99644
0.44220897,4.394451411,1.99896
0.4422096,4.394451411,2.00148
0.44221023,4.390687679,2.004
0.44221086,4.394451411,2.00652
0.44221149,4.386923947,2.00904
0.44221212,4.390687679,2.01156
0.44221275,4.390687679,2.01408
0.44221338,4.390687679,2.0166
0.44221401,4.390687679,2.01912
0.44221464,4.390687679,2.02164
0.44221527,4.394451411,2.02416
0.4422159,4.390687679,2.02668
0.44221653,4.390687679,2.0292
0.44221716,4.390687679,2.03172
0.44221779,4.390687679,2.03424
0.44221842,4.394451411,2.03676
0.44221905,4.394451411,2.03928
0.44221968,4.390687679,2.0418
0.44222031,4.390687679,2.04432
0.44222094,4.386923947,2.04684
0.44222157,4.390687679,2.04936
0.4422222,4.394451411,2.05188
0.44222283,4.394451411,2.0544
0.44222346,4.390687679,2.05692
0.44222409,4.394451411,2.05944
0.44222472,4.394451411,2.06196
0.44222535,4.394451411,2.06448
0.44222598,4.390687679,2.067
0.44222661,4.394451411,2.06952
0.44222724,4.390687679,2.07204
0.44222787,4.394451411,2.07456
0.4422285,4.390687679,2.07708
0.44222913,4.390687679,2.0796
0.44222976,4.386923947,2.08212
0.44223039,4.394451411,2.08464
