data/1.1.10.s.csv

#Digilent WaveForms Oscilloscope Acquisition,,
#Device Name: Discovery2,,
#Serial Number: SN:210321AC1D4D,,
#Date Time: 2020-12-03 16:27:28.768,,
#Sample rate: 8000Hz,,
#Samples: 8192,,
#Trigger: Source: Channel 1 Type: Edge Condition: Rising Level: 0 V Hyst.: Auto HoldOff: 0 s,,
#Channel 1: Range: 2 V/div Offset: 0 V Attenuation: 1 X,,
#Channel 2: Range: 2 V/div Offset: 0 V Attenuation: 1 X,,
#Wavegen Channel 1: Running,,
#Mode: Simple,,
#Type: Sine,,
#Frequency: 10 Hz,,
#Period: 100 ms,,
#Amplitude: 1 V,,
#Offset: 2.5 V,,
#Symmetry: 50 %,,
#Phase: 0 ��,,
#Power Supplies: ON,,
#Positive Supply: ON,,
#Voltage: 5 V,,
#Negative Supply: ON,,
#Voltage: -5 V,,
,,
Time (s),Channel 1 (V),Channel 2 (V)
-0.0785,0.593082354,2.5
-0.078375,1.319482579,2.492146099
-0.07825,3.999259578,2.484292683
-0.078125,4.398215143,2.476440235
-0.078,4.398215143,2.468589241
-0.077875,4.398215143,2.460740184
-0.07775,4.394451411,2.452893549
-0.077625,4.394451411,2.44504982
-0.0775,4.394451411,2.43720948
-0.077375,4.394451411,2.429373014
-0.07725,4.394451411,2.421540904
-0.077125,4.398215143,2.413713634
-0.077,4.394451411,2.405891687
-0.076875,4.394451411,2.398075544
-0.07675,4.394451411,2.390265689
-0.076625,4.398215143,2.382462603
-0.0765,4.398215143,2.374666766
-0.076375,4.398215143,2.366878661
-0.07625,4.398215143,2.359098768
-0.076125,4.394451411,2.351327566
-0.076,4.398215143,2.343565535
-0.075875,4.398215143,2.335813153
-0.07575,4.394451411,2.3280709
-0.075625,4.394451411,2.320339251
-0.0755,4.394451411,2.312618685
-0.075375,4.394451411,2.304909678
-0.07525,4.394451411,2.297212705
-0.075125,4.394451411,2.28952824
-0.075,4.398215143,2.281856759
-0.074875,4.398215143,2.274198733
-0.07475,4.394451411,2.266554636
-0.074625,4.394451411,2.258924939
-0.0745,4.398215143,2.251310113
-0.074375,4.398215143,2.243710627
-0.07425,4.394451411,2.23612695
-0.074125,4.394451411,2.22855955
-0.074,4.398215143,2.221008894
-0.073875,4.398215143,2.213475447
-0.07375,4.398215143,2.205959675
-0.073625,4.398215143,2.19846204
-0.0735,4.394451411,2.190983006
-0.073375,4.398215143,2.183523033
-0.07325,4.394451411,2.176082582
-0.073125,4.398215143,2.168662112
-0.073,4.398215143,2.16126208
-0.072875,4.394451411,2.153882943
-0.07275,4.394451411,2.146525156
-0.072625,4.398215143,2.139189174
-0.0725,4.398215143,2.131875447
-0.072375,4.398215143,2.124584429
-0.07225,4.398215143,2.117316568
-0.072125,4.398215143,2.110072312
-0.072,4.398215143,2.102852109
-0.071875,4.398215143,2.095656404
-0.07175,4.394451411,2.088485641
-0.071625,4.398215143,2.081340262
-0.0715,4.398215143,2.074220708
-0.071375,4.398215143,2.067127418
-0.07125,4.398215143,2.06006083
-0.071125,4.398215143,2.053021379
-0.071,4.398215143,2.0460095
-0.070875,4.398215143,2.039025625
-0.07075,4.398215143,2.032070186
-0.070625,4.398215143,2.02514361
-0.0705,4.398215143,2.018246326
-0.070375,4.398215143,2.011378759
-0.07025,4.398215143,2.004541332
-0.070125,4.398215143,1.997734467
-0.07,4.398215143,1.990958584
-0.069875,4.398215143,1.984214102
-0.06975,4.394451411,1.977501435
-0.069625,4.394451411,1.970820999
-0.0695,4.394451411,1.964173205
-0.069375,4.398215143,1.957558463
-0.06925,4.398215143,1.950977182
-0.069125,4.394451411,1.944429767
-0.069,4.394451411,1.937916622
-0.068875,4.394451411,1.931438149
-0.06875,4.398215143,1.924994748
-0.068625,4.398215143,1.918586816
-0.0685,4.398215143,1.912214748
-0.068375,4.394451411,1.905878937
-0.06825,4.398215143,1.899579775
-0.068125,4.398215143,1.893317649
-0.068,4.398215143,1.887092946
-0.067875,4.398215143,1.880906051
-0.06775,4.398215143,1.874757344
-0.067625,4.398215143,1.868647205
-0.0675,4.398215143,1.86257601
-0.067375,4.394451411,1.856544135
-0.06725,4.398215143,1.850551952
-0.067125,4.394451411,1.844599829
-0.067,4.394451411,1.838688135
-0.066875,4.394451411,1.832817233
-0.06675,4.398215143,1.826987486
-0.066625,4.398215143,1.821199254
-0.0665,4.394451411,1.815452894
-0.066375,4.394451411,1.80974876
-0.06625,4.394451411,1.804087203
-0.066125,4.394451411,1.798468574
-0.066,4.398215143,1.792893219
-0.065875,4.394451411,1.787361481
-0.06575,4.394451411,1.781873702
-0.065625,4.398215143,1.776430221
-0.0655,4.394451411,1.771031373
-0.065375,4.394451411,1.765677491
-0.06525,4.394451411,1.760368905
-0.065125,4.394451411,1.755105943
-0.065,4.394451411,1.74988893
-0.064875,4.394451411,1.744718188
-0.06475,4.394451411,1.739594034
-0.064625,4.394451411,1.734516787
-0.0645,4.394451411,1.729486757
-0.064375,4.394451411,1.724504257
-0.06425,4.394451411,1.719569593
-0.064125,4.394451411,1.714683069
-0.064,4.394451411,1.709844988
-0.063875,4.394451411,1.705055647
-0.06375,4.394451411,1.700315342
-0.063625,4.398215143,1.695624365
-0.0635,4.398215143,1.690983006
-0.063375,4.398215143,1.68639155
-0.06325,4.398215143,1.681850283
-0.063125,4.394451411,1.677359482
-0.063,4.394451411,1.672919426
-0.062875,4.394451411,1.668530388
-0.06275,4.398215143,1.664192639
-0.062625,4.398215143,1.659906446
-0.0625,4.394451411,1.655672074
-0.062375,4.398215143,1.651489785
-0.06225,4.394451411,1.647359836
-0.062125,4.398215143,1.643282481
-0.062,4.394451411,1.639257973
-0.061875,4.394451411,1.635286559
-0.06175,4.398215143,1.631368486
-0.061625,4.394451411,1.627503993
-0.0615,4.394451411,1.62369332
-0.061375,4.394451411,1.619936702
-0.06125,4.398215143,1.61623437
-0.061125,4.394451411,1.612586553
-0.061,4.398215143,1.608993476
-0.060875,4.398215143,1.60545536
-0.06075,4.394451411,1.601972424
-0.060625,4.394451411,1.598544883
-0.0605,4.394451411,1.595172948
-0.060375,4.394451411,1.591856826
-0.06025,4.394451411,1.588596723
-0.060125,4.394451411,1.58539284
-0.06,4.398215143,1.582245374
-0.059875,4.394451411,1.57915452
-0.05975,4.394451411,1.576120467
-0.059625,4.394451411,1.573143404
-0.0595,4.394451411,1.570223514
-0.059375,4.394451411,1.567360977
-0.05925,4.394451411,1.564555969
-0.059125,4.394451411,1.561808664
-0.059,4.394451411,1.559119231
-0.058875,4.394451411,1.556487836
-0.05875,4.398215143,1.553914641
-0.058625,4.398215143,1.551399805
-0.0585,4.398215143,1.548943484
-0.058375,4.394451411,1.546545828
-0.05825,4.394451411,1.544206985
-0.058125,4.394451411,1.541927101
-0.058,4.394451411,1.539706314
-0.057875,4.394451411,1.537544764
-0.05775,4.394451411,1.535442582
-0.057625,4.398215143,1.533399898
-0.0575,4.398215143,1.531416839
-0.057375,4.394451411,1.529493527
-0.05725,4.394451411,1.52763008
-0.057125,4.394451411,1.525826613
-0.057,4.394451411,1.524083238
-0.056875,4.394451411,1.522400062
-0.05675,4.398215143,1.520777189
-0.056625,4.398215143,1.51921472
-0.0565,4.398215143,1.517712749
-0.056375,4.394451411,1.516271371
-0.05625,4.394451411,1.514890674
-0.056125,4.394451411,1.513570743
-0.056,4.394451411,1.512311659
-0.055875,4.398215143,1.511113501
-0.05575,4.398215143,1.509976342
-0.055625,4.394451411,1.508900253
-0.0555,4.398215143,1.507885299
-0.055375,4.398215143,1.506931543
-0.05525,4.394451411,1.506039045
-0.055125,4.394451411,1.505207858
-0.055,4.394451411,1.504438035
-0.054875,4.394451411,1.503729624
-0.05475,4.398215143,1.503082666
-0.054625,4.394451411,1.502497204
-0.0545,4.398215143,1.501973272
-0.054375,4.394451411,1.501510903
-0.05425,4.394451411,1.501110125
-0.054125,4.394451411,1.500770964
-0.054,4.394451411,1.50049344
-0.053875,4.394451411,1.50027757
-0.05375,4.394451411,1.500123368
-0.053625,4.398215143,1.500030842
-0.0535,4.394451411,1.5
-0.053375,4.398215143,1.500030842
-0.05325,4.398215143,1.500123368
-0.053125,4.398215143,1.50027757
-0.053,4.398215143,1.50049344
-0.052875,4.398215143,1.500770964
-0.05275,4.398215143,1.501110125
-0.052625,4.398215143,1.501510903
-0.0525,4.398215143,1.501973272
-0.052375,4.394451411,1.502497204
-0.05225,4.394451411,1.503082666
-0.052125,4.394451411,1.503729624
-0.052,4.398215143,1.504438035
-0.051875,4.394451411,1.505207858
-0.05175,4.394451411,1.506039045
-0.051625,4.398215143,1.506931543
-0.0515,4.394451411,1.507885299
-0.051375,4.394451411,1.508900253
-0.05125,4.394451411,1.509976342
-0.051125,4.394451411,1.511113501
-0.051,4.394451411,1.512311659
-0.050875,4.394451411,1.513570743
-0.05075,4.398215143,1.514890674
-0.050625,4.398215143,1.516271371
-0.0505,4.398215143,1.517712749
-0.050375,4.394451411,1.51921472
-0.05025,4.398215143,1.520777189
-0.050125,4.398215143,1.522400062
-0.05,4.398215143,1.524083238
-0.049875,4.398215143,1.525826613
-0.04975,4.398215143,1.52763008
-0.049625,4.398215143,1.529493527
-0.0495,4.398215143,1.531416839
-0.049375,4.398215143,1.533399898
-0.04925,4.398215143,1.535442582
-0.049125,4.398215143,1.537544764
-0.049,4.394451411,1.539706314
-0.048875,4.398215143,1.541927101
-0.04875,4.398215143,1.544206985
-0.048625,4.398215143,1.546545828
-0.0485,4.398215143,1.548943484
-0.048375,4.398215143,1.551399805
-0.04825,4.398215143,1.553914641
-0.048125,4.394451411,1.556487836
-0.048,4.398215143,1.559119231
-0.047875,4.398215143,1.561808664
-0.04775,4.398215143,1.564555969
-0.047625,4.398215143,1.567360977
-0.0475,4.398215143,1.570223514
-0.047375,4.398215143,1.573143404
-0.04725,4.398215143,1.576120467
-0.047125,4.398215143,1.57915452
-0.047,4.398215143,1.582245374
-0.046875,4.398215143,1.58539284
-0.04675,4.398215143,1.588596723
-0.046625,4.398215143,1.591856826
-0.0465,4.398215143,1.595172948
-0.046375,4.398215143,1.598544883
-0.04625,4.398215143,1.601972424
-0.046125,4.394451411,1.60545536
-0.046,4.394451411,1.608993476
-0.045875,4.398215143,1.612586553
-0.04575,4.398215143,1.61623437
-0.045625,4.398215143,1.619936702
-0.0455,4.398215143,1.62369332
-0.045375,4.398215143,1.627503993
-0.04525,4.398215143,1.631368486
-0.045125,4.398215143,1.635286559
-0.045,4.398215143,1.639257973
-0.044875,4.398215143,1.643282481
-0.04475,4.398215143,1.647359836
-0.044625,4.398215143,1.651489785
-0.0445,4.398215143,1.655672074
-0.044375,4.398215143,1.659906446
-0.04425,4.394451411,1.664192639
-0.044125,4.394451411,1.668530388
-0.044,4.394451411,1.672919426
-0.043875,4.394451411,1.677359482
-0.04375,4.398215143,1.681850283
-0.043625,4.398215143,1.68639155
-0.0435,4.398215143,1.690983006
-0.043375,4.398215143,1.695624365
-0.04325,4.394451411,1.700315342
-0.043125,4.394451411,1.705055647
-0.043,4.394451411,1.709844988
-0.042875,4.394451411,1.714683069
-0.04275,4.398215143,1.719569593
-0.042625,4.394451411,1.724504257
-0.0425,4.394451411,1.729486757
-0.042375,4.398215143,1.734516787
-0.04225,4.398215143,1.739594034
-0.042125,4.398215143,1.744718188
-0.042,4.398215143,1.74988893
-0.041875,4.398215143,1.755105943
-0.04175,4.394451411,1.760368905
-0.041625,4.394451411,1.765677491
-0.0415,4.394451411,1.771031373
-0.041375,4.394451411,1.776430221
-0.04125,4.394451411,1.781873702
-0.041125,4.394451411,1.787361481
-0.041,4.394451411,1.792893219
-0.040875,4.394451411,1.798468574
-0.04075,4.394451411,1.804087203
-0.040625,4.394451411,1.80974876
-0.0405,4.394451411,1.815452894
-0.040375,4.394451411,1.821199254
-0.04025,4.398215143,1.826987486
-0.040125,4.398215143,1.832817233
-0.04,4.394451411,1.838688135
-0.039875,4.394451411,1.844599829
-0.03975,4.394451411,1.850551952
-0.039625,4.398215143,1.856544135
-0.0395,4.398215143,1.86257601
-0.039375,4.394451411,1.868647205
-0.03925,4.398215143,1.874757344
-0.039125,4.398215143,1.880906051
-0.039,4.394451411,1.887092946
-0.038875,4.398215143,1.893317649
-0.03875,4.398215143,1.899579775
-0.038625,4.398215143,1.905878937
-0.0385,4.398215143,1.912214748
-0.038375,4.398215143,1.918586816
-0.03825,4.398215143,1.924994748
-0.038125,4.398215143,1.931438149
-0.038,4.394451411,1.937916622
-0.037875,4.394451411,1.944429767
-0.03775,4.394451411,1.950977182
-0.037625,4.398215143,1.957558463
-0.0375,4.398215143,1.964173205
-0.037375,4.394451411,1.970820999
-0.03725,4.398215143,1.977501435
-0.037125,4.398215143,1.984214102
-0.037,4.394451411,1.990958584
-0.036875,4.394451411,1.997734467
-0.03675,4.398215143,2.004541332
-0.036625,4.394451411,2.011378759
-0.0365,4.398215143,2.018246326
-0.036375,4.398215143,2.02514361
-0.03625,4.398215143,2.032070186
-0.036125,4.398215143,2.039025625
-0.036,4.394451411,2.0460095
-0.035875,4.394451411,2.053021379
-0.03575,4.398215143,2.06006083
-0.035625,4.398215143,2.067127418
-0.0355,4.394451411,2.074220708
-0.035375,4.398215143,2.081340262
-0.03525,4.398215143,2.088485641
-0.035125,4.394451411,2.095656404
-0.035,4.394451411,2.102852109
-0.034875,4.398215143,2.110072312
-0.03475,4.398215143,2.117316568
-0.034625,4.398215143,2.124584429
-0.0345,4.398215143,2.131875447
-0.034375,4.394451411,2.139189174
-0.03425,4.394451411,2.146525156
-0.034125,4.394451411,2.153882943
-0.034,4.394451411,2.16126208
-0.033875,4.394451411,2.168662112
-0.03375,4.394451411,2.176082582
-0.033625,4.394451411,2.183523033
-0.0335,4.394451411,2.190983006
-0.033375,4.394451411,2.19846204
-0.03325,4.394451411,2.205959675
-0.033125,4.394451411,2.213475447
-0.033,4.394451411,2.221008894
-0.032875,4.394451411,2.22855955
-0.03275,4.394451411,2.23612695
-0.032625,4.394451411,2.243710627
-0.0325,4.398215143,2.251310113
-0.032375,4.394451411,2.258924939
-0.03225,4.398215143,2.266554636
-0.032125,4.394451411,2.274198733
-0.032,4.394451411,2.281856759
-0.031875,4.394451411,2.28952824
-0.03175,4.398215143,2.297212705
-0.031625,4.398215143,2.304909678
-0.0315,4.398215143,2.312618685
-0.031375,4.398215143,2.320339251
-0.03125,4.398215143,2.3280709
-0.031125,4.398215143,2.335813153
-0.031,4.398215143,2.343565535
-0.030875,4.398215143,2.351327566
-0.03075,4.398215143,2.359098768
-0.030625,4.394451411,2.366878661
-0.0305,4.394451411,2.374666766
-0.030375,4.394451411,2.382462603
-0.03025,4.394451411,2.390265689
-0.030125,4.394451411,2.398075544
-0.03,4.394451411,2.405891687
-0.029875,4.394451411,2.413713634
-0.02975,4.398215143,2.421540904
-0.029625,4.394451411,2.429373014
-0.0295,4.398215143,2.43720948
-0.029375,4.394451411,2.44504982
-0.02925,4.394451411,2.452893549
-0.029125,4.394451411,2.460740184
-0.029,4.398215143,2.468589241
-0.028875,4.394451411,2.476440235
-0.02875,4.398215143,2.484292683
-0.028625,4.394451411,2.492146099
-0.0285,4.394451411,2.5
-0.028375,3.31049667,2.507853901
-0.02825,0.777505209,2.515707317
-0.028125,0.589318622,2.523559765
-0.028,0.593082354,2.531410759
-0.027875,0.596846085,2.539259816
-0.02775,0.596846085,2.547106451
-0.027625,0.600609817,2.55495018
-0.0275,0.600609817,2.56279052
-0.027375,0.604373549,2.570626986
-0.02725,0.604373549,2.578459096
-0.027125,0.604373549,2.586286366
-0.027,0.604373549,2.594108313
-0.026875,0.604373549,2.601924456
-0.02675,0.604373549,2.609734311
-0.026625,0.608137281,2.617537397
-0.0265,0.608137281,2.625333234
-0.026375,0.608137281,2.633121339
-0.02625,0.608137281,2.640901232
-0.026125,0.604373549,2.648672434
-0.026,0.604373549,2.656434465
-0.025875,0.608137281,2.664186847
-0.02575,0.608137281,2.6719291
-0.025625,0.608137281,2.679660749
-0.0255,0.608137281,2.687381315
-0.025375,0.608137281,2.695090322
-0.02525,0.608137281,2.702787295
-0.025125,0.608137281,2.71047176
-0.025,0.608137281,2.718143241
-0.024875,0.608137281,2.725801267
-0.02475,0.608137281,2.733445364
-0.024625,0.608137281,2.741075061
-0.0245,0.608137281,2.748689887
-0.024375,0.608137281,2.756289373
-0.02425,0.608137281,2.76387305
-0.024125,0.608137281,2.77144045
-0.024,0.608137281,2.778991106
-0.023875,0.608137281,2.786524553
-0.02375,0.608137281,2.794040325
-0.023625,0.608137281,2.80153796
-0.0235,0.608137281,2.809016994
-0.023375,0.608137281,2.816476967
-0.02325,0.608137281,2.823917418
-0.023125,0.608137281,2.831337888
-0.023,0.608137281,2.83873792
-0.022875,0.608137281,2.846117057
-0.02275,0.608137281,2.853474844
-0.022625,0.608137281,2.860810826
-0.0225,0.608137281,2.868124553
-0.022375,0.608137281,2.875415571
-0.02225,0.608137281,2.882683432
-0.022125,0.608137281,2.889927688
-0.022,0.608137281,2.897147891
-0.021875,0.604373549,2.904343596
-0.02175,0.608137281,2.911514359
-0.021625,0.608137281,2.918659738
-0.0215,0.608137281,2.925779292
-0.021375,0.608137281,2.932872582
-0.02125,0.604373549,2.93993917
-0.021125,0.604373549,2.946978621
-0.021,0.608137281,2.9539905
-0.020875,0.608137281,2.960974375
-0.02075,0.608137281,2.967929814
-0.020625,0.608137281,2.97485639
-0.0205,0.604373549,2.981753674
-0.020375,0.604373549,2.988621241
-0.02025,0.608137281,2.995458668
-0.020125,0.608137281,3.002265533
-0.02,0.608137281,3.009041416
-0.019875,0.608137281,3.015785898
-0.01975,0.604373549,3.022498565
-0.019625,0.604373549,3.029179001
-0.0195,0.604373549,3.035826795
-0.019375,0.608137281,3.042441537
-0.01925,0.608137281,3.049022818
-0.019125,0.608137281,3.055570233
-0.019,0.608137281,3.062083378
-0.018875,0.608137281,3.068561851
-0.01875,0.608137281,3.075005252
-0.018625,0.608137281,3.081413184
-0.0185,0.608137281,3.087785252
-0.018375,0.608137281,3.094121063
-0.01825,0.608137281,3.100420225
-0.018125,0.611901012,3.106682351
-0.018,0.615664744,3.112907054
-0.017875,0.619428476,3.119093949
-0.01775,0.619428476,3.125242656
-0.017625,0.623192208,3.131352795
-0.0175,0.623192208,3.13742399
-0.017375,0.623192208,3.143455865
-0.01725,0.626955939,3.149448048
-0.017125,0.626955939,3.155400171
-0.017,0.626955939,3.161311865
-0.016875,0.626955939,3.167182767
-0.01675,0.626955939,3.173012514
-0.016625,0.626955939,3.178800746
-0.0165,0.626955939,3.184547106
-0.016375,0.626955939,3.19025124
-0.01625,0.626955939,3.195912797
-0.016125,0.626955939,3.201531426
-0.016,0.626955939,3.207106781
-0.015875,0.626955939,3.212638519
-0.01575,0.630719671,3.218126298
-0.015625,0.626955939,3.223569779
-0.0155,0.630719671,3.228968627
-0.015375,0.630719671,3.234322509
-0.01525,0.626955939,3.239631095
-0.015125,0.630719671,3.244894057
-0.015,0.630719671,3.25011107
-0.014875,0.630719671,3.255281812
-0.01475,0.630719671,3.260405966
-0.014625,0.630719671,3.265483213
-0.0145,0.630719671,3.270513243
-0.014375,0.630719671,3.275495743
-0.01425,0.630719671,3.280430407
-0.014125,0.630719671,3.285316931
-0.014,0.630719671,3.290155012
-0.013875,0.630719671,3.294944353
-0.01375,0.630719671,3.299684658
-0.013625,0.630719671,3.304375635
-0.0135,0.630719671,3.309016994
-0.013375,0.630719671,3.31360845
-0.01325,0.630719671,3.318149717
-0.013125,0.630719671,3.322640518
-0.013,0.630719671,3.327080574
-0.012875,0.630719671,3.331469612
-0.01275,0.630719671,3.335807361
-0.012625,0.630719671,3.340093554
-0.0125,0.630719671,3.344327926
-0.012375,0.630719671,3.348510215
-0.01225,0.630719671,3.352640164
-0.012125,0.630719671,3.356717519
-0.012,0.630719671,3.360742027
-0.011875,0.630719671,3.364713441
-0.01175,0.630719671,3.368631514
-0.011625,0.630719671,3.372496007
-0.0115,0.630719671,3.37630668
-0.011375,0.630719671,3.380063298
-0.01125,0.630719671,3.38376563
-0.011125,0.630719671,3.387413447
-0.011,0.630719671,3.391006524
-0.010875,0.630719671,3.39454464
-0.01075,0.630719671,3.398027576
-0.010625,0.630719671,3.401455117
-0.0105,0.630719671,3.404827052
-0.010375,0.630719671,3.408143174
-0.01025,0.630719671,3.411403277
-0.010125,0.630719671,3.41460716
-0.01,0.630719671,3.417754626
-0.009875,0.630719671,3.42084548
-0.00975,0.630719671,3.423879533
-0.009625,0.630719671,3.426856596
-0.0095,0.630719671,3.429776486
-0.009375,0.630719671,3.432639023
-0.00925,0.630719671,3.435444031
-0.009125,0.630719671,3.438191336
-0.009,0.630719671,3.440880769
-0.008875,0.630719671,3.443512164
-0.00875,0.630719671,3.446085359
-0.008625,0.630719671,3.448600195
-0.0085,0.630719671,3.451056516
-0.008375,0.630719671,3.453454172
-0.00825,0.630719671,3.455793015
-0.008125,0.630719671,3.458072899
-0.008,0.630719671,3.460293686
-0.007875,0.630719671,3.462455236
-0.00775,0.630719671,3.464557418
-0.007625,0.630719671,3.466600102
-0.0075,0.630719671,3.468583161
-0.007375,0.630719671,3.470506473
-0.00725,0.630719671,3.47236992
-0.007125,0.630719671,3.474173387
-0.007,0.630719671,3.475916762
-0.006875,0.630719671,3.477599938
-0.00675,0.630719671,3.479222811
-0.006625,0.630719671,3.48078528
-0.0065,0.630719671,3.482287251
-0.006375,0.630719671,3.483728629
-0.00625,0.630719671,3.485109326
-0.006125,0.630719671,3.486429257
-0.006,0.630719671,3.487688341
-0.005875,0.630719671,3.488886499
-0.00575,0.630719671,3.490023658
-0.005625,0.630719671,3.491099747
-0.0055,0.630719671,3.492114701
