data/1.2.1k.c.csv

#Digilent WaveForms Oscilloscope Acquisition,,
#Device Name: Discovery2,,
#Serial Number: SN:210321AC1D4D,,
#Date Time: 2020-12-03 16:45:34.002,,
#Sample rate: 1.5873e+06Hz,,
#Samples: 8192,,
#Trigger: Source: Channel 1 Type: Edge Condition: Rising Level: 0 V Hyst.: Auto HoldOff: 0 s,,
#Channel 1: Range: 2 V/div Offset: 0 V Attenuation: 1 X,,
#Channel 2: Range: 2 V/div Offset: 0 V Attenuation: 1 X,,
#Wavegen Channel 1: Running,,
#Mode: Simple,,
#Type: Custom1,,
#Frequency: 1 kHz,,
#Period: 1 ms,,
#Amplitude: 1 V,,
#Offset: 2.1 V,,
#Phase: 0 ��,,
#Power Supplies: ON,,
#Positive Supply: ON,,
#Voltage: 5 V,,
#Negative Supply: ON,,
#Voltage: -5 V,,
,,
Time (s),Channel 1 (V),Channel 2 (V)
0.44159661,0.698466842,1.183371909
0.44159724,0.67212072,1.179593816
0.44159787,0.675884452,1.179593816
0.4415985,0.67212072,1.183371909
0.44159913,0.668356988,1.183371909
0.44159976,0.660829525,1.183371909
0.44160039,0.660829525,1.179593816
0.44160102,0.668356988,1.179593816
0.44160165,0.668356988,1.183371909
0.44160228,0.67212072,1.183371909
0.44160291,0.690939379,1.187150003
0.44160354,0.724812965,1.187150003
0.44160417,0.769977745,1.183371909
0.4416048,0.833961185,1.183371909
0.44160543,0.916763283,1.183371909
0.44160606,1.014620309,1.209818563
0.44160669,1.112477334,1.213596657
0.44160732,1.214098091,1.20604047
0.44160795,1.315718848,1.209818563
0.44160858,1.413575873,1.209818563
0.44160921,1.51519663,1.20604047
0.44160984,1.613053655,1.209818563
0.44161047,1.703383217,1.213596657
0.4416111,1.801240242,1.209818563
0.44161173,1.895333536,1.209818563
0.44161236,1.993190561,1.209818563
0.44161299,2.087283854,1.213596657
0.44161362,2.18514088,1.20604047
0.44161425,2.279234173,1.209818563
0.44161488,2.373327467,1.20604047
0.44161551,2.471184492,1.209818563
0.44161614,2.572805249,1.175815722
0.44161677,2.659371079,1.164481442
0.4416174,2.757228104,1.164481442
0.44161803,2.851321398,1.164481442
0.44161866,2.952942154,1.164481442
0.44161929,3.047035448,1.168259535
0.44161992,3.144892473,1.160703348
0.44162055,3.235222035,1.160703348
0.44162118,3.33307906,1.160703348
0.44162181,3.430936085,1.164481442
0.44162244,3.532556842,1.160703348
0.44162307,3.630413868,1.164481442
0.4416237,3.728270893,1.164481442
0.44162433,3.822364186,1.160703348
0.44162496,3.920221212,1.164481442
0.44162559,4.021841969,1.156925255
0.44162622,4.127226457,1.09647576
0.44162685,4.210028556,1.100253853
0.44162748,4.2627208,1.100253853
0.44162811,4.281539459,1.09647576
0.44162874,4.292830654,1.100253853
0.44162937,4.289066922,1.092697666
0.44163,4.28530319,1.092697666
0.44163063,4.281539459,1.09647576
0.44163126,4.281539459,1.100253853
0.44163189,4.28530319,1.100253853
0.44163252,4.28530319,1.09647576
0.44163315,4.28530319,1.092697666
0.44163378,4.28530319,1.092697666
0.44163441,4.28530319,1.100253853
0.44163504,4.289066922,1.104031946
0.44163567,4.281539459,1.104031946
0.4416363,4.281539459,1.092697666
0.44163693,4.28530319,1.09647576
0.44163756,4.281539459,1.088919573
0.44163819,4.28530319,1.092697666
0.44163882,4.28530319,1.092697666
0.44163945,4.281539459,1.092697666
0.44164008,4.277775727,1.092697666
0.44164071,4.277775727,1.09647576
0.44164134,4.274011995,1.100253853
0.44164197,4.270248263,1.088919573
0.4416426,4.277775727,1.085141479
0.44164323,4.274011995,1.092697666
0.44164386,4.270248263,1.092697666
0.44164449,4.270248263,1.09647576
0.44164512,4.274011995,1.09647576
0.44164575,4.274011995,1.122922414
0.44164638,4.274011995,1.172037629
0.44164701,4.270248263,1.172037629
0.44164764,4.270248263,1.172037629
0.44164827,4.266484532,1.175815722
0.4416489,4.270248263,1.172037629
0.44164953,4.270248263,1.175815722
0.44165016,4.270248263,1.172037629
0.44165079,4.266484532,1.172037629
0.44165142,4.270248263,1.175815722
0.44165205,4.274011995,1.175815722
0.44165268,4.266484532,1.172037629
0.44165331,4.2627208,1.175815722
0.44165394,4.266484532,1.175815722
0.44165457,4.266484532,1.175815722
0.4416552,4.266484532,1.172037629
0.44165583,4.266484532,1.198484283
0.44165646,4.2627208,1.277824246
0.44165709,4.2627208,1.277824246
0.44165772,4.266484532,1.281602339
0.44165835,4.2627208,1.281602339
0.44165898,4.2627208,1.281602339
0.44165961,4.2627208,1.281602339
0.44166024,4.266484532,1.281602339
0.44166087,4.2627208,1.285380433
0.4416615,4.258957068,1.285380433
0.44166213,4.258957068,1.281602339
0.44166276,4.255193336,1.281602339
0.44166339,4.255193336,1.281602339
0.44166402,4.255193336,1.285380433
0.44166465,4.258957068,1.289158526
0.44166528,4.2627208,1.289158526
0.44166591,4.2627208,1.323161367
0.44166654,4.2627208,1.349608021
0.44166717,4.251429605,1.353386115
0.4416678,4.251429605,1.353386115
0.44166843,4.255193336,1.353386115
0.44166906,4.258957068,1.357164208
0.44166969,4.258957068,1.360942302
0.44167032,4.251429605,1.360942302
0.44167095,4.251429605,1.357164208
0.44167158,4.247665873,1.357164208
0.44167221,4.251429605,1.353386115
0.44167284,4.251429605,1.353386115
0.44167347,4.251429605,1.357164208
0.4416741,4.251429605,1.357164208
0.44167473,4.247665873,1.360942302
0.44167536,4.247665873,1.353386115
0.44167599,4.243902141,1.349608021
0.44167662,4.243902141,1.342051834
0.44167725,4.240138409,1.338273741
0.44167788,4.240138409,1.338273741
0.44167851,4.243902141,1.338273741
0.44167914,4.240138409,1.342051834
0.44167977,4.240138409,1.342051834
0.4416804,4.243902141,1.338273741
0.44168103,4.240138409,1.342051834
0.44168166,4.243902141,1.338273741
0.44168229,4.243902141,1.338273741
0.44168292,4.243902141,1.342051834
0.44168355,4.243902141,1.338273741
0.44168418,4.243902141,1.334495648
0.44168481,4.240138409,1.338273741
0.44168544,4.240138409,1.338273741
0.44168607,4.240138409,1.281602339
0.4416867,4.240138409,1.270268059
0.44168733,4.247665873,1.270268059
0.44168796,4.247665873,1.266489965
0.44168859,4.247665873,1.266489965
0.44168922,4.243902141,1.270268059
0.44168985,4.240138409,1.270268059
0.44169048,4.240138409,1.270268059
0.44169111,4.240138409,1.270268059
0.44169174,4.240138409,1.270268059
0.44169237,4.236374678,1.274046152
0.441693,4.236374678,1.274046152
0.44169363,4.240138409,1.270268059
0.44169426,4.232610946,1.270268059
0.44169489,4.236374678,1.274046152
0.44169552,4.232610946,1.270268059
0.44169615,4.236374678,1.236265218
0.44169678,4.232610946,1.224930937
0.44169741,4.228847214,1.228709031
0.44169804,4.232610946,1.228709031
0.44169867,4.232610946,1.224930937
0.4416993,4.236374678,1.224930937
0.44169993,4.228847214,1.228709031
0.44170056,4.228847214,1.228709031
0.44170119,4.228847214,1.228709031
0.44170182,4.236374678,1.232487124
0.44170245,4.240138409,1.224930937
0.44170308,4.236374678,1.224930937
0.44170371,4.232610946,1.228709031
0.44170434,4.228847214,1.224930937
0.44170497,4.228847214,1.224930937
0.4417056,4.232610946,1.224930937
0.44170623,4.228847214,1.262711872
0.44170686,4.228847214,1.262711872
0.44170749,4.232610946,1.262711872
0.44170812,4.232610946,1.266489965
0.44170875,4.236374678,1.266489965
0.44170938,4.228847214,1.262711872
0.44171001,4.228847214,1.266489965
0.44171064,4.228847214,1.262711872
0.44171127,4.236374678,1.266489965
0.4417119,4.228847214,1.266489965
0.44171253,4.228847214,1.266489965
0.44171316,4.232610946,1.262711872
0.44171379,4.236374678,1.262711872
0.44171442,4.236374678,1.258933778
0.44171505,4.232610946,1.258933778
0.44171568,4.228847214,1.262711872
0.44171631,4.225083483,1.364720395
0.44171694,4.225083483,1.368498489
0.44171757,4.232610946,1.368498489
0.4417182,4.228847214,1.368498489
0.44171883,4.228847214,1.360942302
0.44171946,4.232610946,1.364720395
0.44172009,4.228847214,1.368498489
0.44172072,4.228847214,1.368498489
0.44172135,4.228847214,1.368498489
0.44172198,4.232610946,1.364720395
0.44172261,4.228847214,1.360942302
0.44172324,4.225083483,1.364720395
0.44172387,4.228847214,1.364720395
0.4417245,4.225083483,1.368498489
0.44172513,4.225083483,1.368498489
0.44172576,4.228847214,1.398723236
0.44172639,4.232610946,1.474285106
0.44172702,4.225083483,1.474285106
0.44172765,4.221319751,1.470507012
0.44172828,4.225083483,1.462950825
0.44172891,4.221319751,1.459172732
0.44172954,4.228847214,1.459172732
0.44173017,4.225083483,1.462950825
0.4417308,4.225083483,1.462950825
0.44173143,4.232610946,1.466728919
0.44173206,4.232610946,1.466728919
0.44173269,4.228847214,1.462950825
0.44173332,4.225083483,1.462950825
0.44173395,4.228847214,1.462950825
0.44173458,4.225083483,1.470507012
0.44173521,4.221319751,1.466728919
0.44173584,4.221319751,1.470507012
0.44173647,4.225083483,1.485619386
0.4417371,4.228847214,1.489397479
0.44173773,4.225083483,1.489397479
0.44173836,4.228847214,1.489397479
0.44173899,4.225083483,1.489397479
0.44173962,4.217556019,1.489397479
0.44174025,4.225083483,1.485619386
0.44174088,4.225083483,1.489397479
0.44174151,4.225083483,1.489397479
0.44174214,4.225083483,1.489397479
0.44174277,4.225083483,1.489397479
0.4417434,4.225083483,1.493175573
0.44174403,4.225083483,1.489397479
0.44174466,4.232610946,1.489397479
0.44174529,4.236374678,1.489397479
0.44174592,4.228847214,1.459172732
0.44174655,4.228847214,1.432726078
0.44174718,4.228847214,1.428947984
0.44174781,4.228847214,1.425169891
0.44174844,4.221319751,1.432726078
0.44174907,4.228847214,1.428947984
0.4417497,4.228847214,1.432726078
0.44175033,4.228847214,1.432726078
0.44175096,4.232610946,1.432726078
0.44175159,4.228847214,1.428947984
0.44175222,4.232610946,1.428947984
0.44175285,4.232610946,1.436504171
0.44175348,4.228847214,1.436504171
0.44175411,4.225083483,1.428947984
0.44175474,4.225083483,1.428947984
0.44175537,4.221319751,1.432726078
0.441756,4.221319751,1.40250133
0.44175663,4.225083483,1.364720395
0.44175726,4.225083483,1.357164208
0.44175789,4.221319751,1.357164208
0.44175852,4.225083483,1.357164208
0.44175915,4.221319751,1.357164208
0.44175978,4.221319751,1.360942302
0.44176041,4.225083483,1.364720395
0.44176104,4.228847214,1.364720395
0.44176167,4.228847214,1.364720395
0.4417623,4.228847214,1.368498489
0.44176293,4.225083483,1.364720395
0.44176356,4.225083483,1.368498489
0.44176419,4.225083483,1.360942302
0.44176482,4.225083483,1.360942302
0.44176545,4.225083483,1.360942302
0.44176608,4.228847214,1.360942302
0.44176671,4.225083483,1.360942302
0.44176734,4.228847214,1.360942302
0.44176797,4.225083483,1.357164208
0.4417686,4.221319751,1.357164208
0.44176923,4.221319751,1.360942302
0.44176986,4.217556019,1.357164208
0.44177049,4.217556019,1.357164208
0.44177112,4.221319751,1.357164208
0.44177175,4.221319751,1.357164208
0.44177238,4.225083483,1.360942302
0.44177301,4.228847214,1.364720395
0.44177364,4.225083483,1.364720395
0.44177427,4.221319751,1.364720395
0.4417749,4.221319751,1.364720395
0.44177553,4.225083483,1.360942302
0.44177616,4.225083483,1.41383561
0.44177679,4.221319751,1.440282264
0.44177742,4.221319751,1.444060358
0.44177805,4.221319751,1.444060358
0.44177868,4.228847214,1.440282264
0.44177931,4.232610946,1.440282264
0.44177994,4.232610946,1.444060358
0.44178057,4.232610946,1.447838451
0.4417812,4.228847214,1.444060358
0.44178183,4.225083483,1.440282264
0.44178246,4.228847214,1.436504171
0.44178309,4.228847214,1.436504171
0.44178372,4.228847214,1.440282264
0.44178435,4.221319751,1.444060358
0.44178498,4.221319751,1.444060358
0.44178561,4.228847214,1.436504171
0.44178624,4.228847214,1.51206604
0.44178687,4.228847214,1.553625068
0.4417875,4.228847214,1.557403162
0.44178813,4.228847214,1.557403162
0.44178876,4.228847214,1.553625068
0.44178939,4.225083483,1.553625068
0.44179002,4.232610946,1.549846975
0.44179065,4.228847214,1.549846975
0.44179128,4.225083483,1.553625068
0.44179191,4.225083483,1.553625068
0.44179254,4.221319751,1.553625068
0.44179317,4.217556019,1.553625068
0.4417938,4.221319751,1.561181255
0.44179443,4.225083483,1.557403162
0.44179506,4.225083483,1.553625068
0.44179569,4.221319751,1.553625068
0.44179632,4.225083483,1.614074564
0.44179695,4.228847214,1.621630751
0.44179758,4.225083483,1.617852657
0.44179821,4.225083483,1.617852657
0.44179884,4.221319751,1.614074564
0.44179947,4.225083483,1.614074564
0.4418001,4.232610946,1.61029647
0.44180073,4.225083483,1.61029647
0.44180136,4.228847214,1.617852657
0.44180199,4.228847214,1.617852657
0.44180262,4.232610946,1.614074564
0.44180325,4.228847214,1.614074564
0.44180388,4.228847214,1.614074564
0.44180451,4.225083483,1.617852657
0.44180514,4.225083483,1.617852657
0.44180577,4.225083483,1.614074564
0.4418064,4.228847214,1.591406003
0.44180703,4.225083483,1.591406003
0.44180766,4.225083483,1.591406003
0.44180829,4.228847214,1.587627909
0.44180892,4.225083483,1.587627909
0.44180955,4.225083483,1.587627909
0.44181018,4.228847214,1.587627909
0.44181081,4.225083483,1.587627909
0.44181144,4.225083483,1.591406003
0.44181207,4.228847214,1.587627909
0.4418127,4.228847214,1.591406003
0.44181333,4.232610946,1.587627909
0.44181396,4.228847214,1.587627909
0.44181459,4.228847214,1.587627909
0.44181522,4.228847214,1.587627909
0.44181585,4.228847214,1.572515536
0.44181648,4.225083483,1.519622227
0.44181711,4.228847214,1.519622227
0.44181774,4.228847214,1.515844134
0.44181837,4.225083483,1.519622227
0.441819,4.221319751,1.519622227
0.44181963,4.225083483,1.519622227
0.44182026,4.225083483,1.519622227
0.44182089,4.228847214,1.51206604
0.44182152,4.225083483,1.515844134
0.44182215,4.228847214,1.519622227
0.44182278,4.228847214,1.523400321
0.44182341,4.225083483,1.519622227
0.44182404,4.225083483,1.519622227
0.44182467,4.228847214,1.519622227
0.4418253,4.225083483,1.515844134
0.44182593,4.221319751,1.51206604
0.44182656,4.221319751,1.478063199
0.44182719,4.225083483,1.474285106
0.44182782,4.225083483,1.481841293
0.44182845,4.225083483,1.481841293
0.44182908,4.225083483,1.481841293
0.44182971,4.225083483,1.478063199
0.44183034,4.225083483,1.474285106
0.44183097,4.232610946,1.481841293
0.4418316,4.225083483,1.481841293
0.44183223,4.225083483,1.481841293
0.44183286,4.225083483,1.478063199
0.44183349,4.225083483,1.478063199
0.44183412,4.225083483,1.481841293
0.44183475,4.225083483,1.481841293
0.44183538,4.228847214,1.478063199
0.44183601,4.232610946,1.496953666
0.44183664,4.228847214,1.523400321
0.44183727,4.228847214,1.519622227
0.4418379,4.228847214,1.519622227
0.44183853,4.225083483,1.519622227
0.44183916,4.225083483,1.523400321
0.44183979,4.217556019,1.527178414
0.44184042,4.221319751,1.527178414
0.44184105,4.217556019,1.523400321
0.44184168,4.221319751,1.519622227
0.44184231,4.228847214,1.523400321
0.44184294,4.228847214,1.519622227
0.44184357,4.228847214,1.523400321
0.4418442,4.232610946,1.523400321
0.44184483,4.228847214,1.523400321
0.44184546,4.225083483,1.527178414
0.44184609,4.225083483,1.602740283
0.44184672,4.228847214,1.636743124
0.44184735,4.232610946,1.632965031
0.44184798,4.228847214,1.632965031
0.44184861,4.221319751,1.629186937
0.44184924,4.225083483,1.636743124
0.44184987,4.225083483,1.632965031
0.4418505,4.225083483,1.632965031
0.44185113,4.228847214,1.632965031
0.44185176,4.228847214,1.629186937
0.44185239,4.225083483,1.632965031
0.44185302,4.228847214,1.632965031
0.44185365,4.232610946,1.636743124
0.44185428,4.236374678,1.636743124
0.44185491,4.228847214,1.636743124
0.44185554,4.225083483,1.636743124
0.44185617,4.225083483,1.716083087
0.4418568,4.225083483,1.719861181
0.44185743,4.225083483,1.719861181
0.44185806,4.221319751,1.719861181
0.44185869,4.225083483,1.719861181
0.44185932,4.228847214,1.716083087
0.44185995,4.228847214,1.716083087
0.44186058,4.232610946,1.716083087
0.44186121,4.228847214,1.712304994
0.44186184,4.225083483,1.716083087
0.44186247,4.228847214,1.719861181
0.4418631,4.225083483,1.723639274
0.44186373,4.221319751,1.719861181
0.44186436,4.228847214,1.719861181
0.44186499,4.228847214,1.719861181
0.44186562,4.225083483,1.719861181
0.44186625,4.221319751,1.734973554
0.44186688,4.217556019,1.734973554
0.44186751,4.221319751,1.734973554
0.44186814,4.228847214,1.734973554
0.44186877,4.232610946,1.734973554
0.4418694,4.225083483,1.734973554
0.44187003,4.228847214,1.731195461
0.44187066,4.228847214,1.731195461
0.44187129,4.228847214,1.734973554
0.44187192,4.228847214,1.731195461
0.44187255,4.225083483,1.731195461
0.44187318,4.225083483,1.731195461
0.44187381,4.225083483,1.734973554
0.44187444,4.225083483,1.734973554
0.44187507,4.232610946,1.731195461
0.4418757,4.228847214,1.716083087
0.44187633,4.232610946,1.678302152
0.44187696,4.236374678,1.674524059
0.44187759,4.228847214,1.678302152
0.44187822,4.228847214,1.678302152
0.44187885,4.225083483,1.678302152
0.44187948,4.228847214,1.682080246
0.44188011,4.228847214,1.678302152
0.44188074,4.221319751,1.674524059
0.44188137,4.228847214,1.678302152
0.441882,4.228847214,1.678302152
0.44188263,4.228847214,1.682080246
0.44188326,4.221319751,1.678302152
0.44188389,4.221319751,1.678302152
0.44188452,4.225083483,1.678302152
0.44188515,4.228847214,1.678302152
0.44188578,4.228847214,1.666967872
0.44188641,4.228847214,1.614074564
0.44188704,4.225083483,1.61029647
0.44188767,4.228847214,1.606518377
0.4418883,4.228847214,1.606518377
0.44188893,4.228847214,1.61029647
0.44188956,4.225083483,1.614074564
0.44189019,4.225083483,1.614074564
0.44189082,4.221319751,1.614074564
0.44189145,4.221319751,1.614074564
0.44189208,4.221319751,1.614074564
0.44189271,4.221319751,1.614074564
0.44189334,4.221319751,1.61029647
0.44189397,4.221319751,1.61029647
0.4418946,4.225083483,1.61029647
0.44189523,4.225083483,1.61029647
0.44189586,4.221319751,1.617852657
0.44189649,4.221319751,1.621630751
0.44189712,4.225083483,1.621630751
0.44189775,4.225083483,1.617852657
0.44189838,4.221319751,1.617852657
0.44189901,4.217556019,1.621630751
0.44189964,4.225083483,1.614074564
0.44190027,4.225083483,1.614074564
0.4419009,4.225083483,1.617852657
0.44190153,4.225083483,1.617852657
0.44190216,4.225083483,1.617852657
0.44190279,4.228847214,1.614074564
0.44190342,4.221319751,1.614074564
0.44190405,4.225083483,1.614074564
0.44190468,4.225083483,1.617852657
0.44190531,4.225083483,1.621630751
0.44190594,4.221319751,1.655633592
0.44190657,4.221319751,1.704748807
0.4419072,4.225083483,1.704748807
0.44190783,4.228847214,1.7085269
0.44190846,4.232610946,1.704748807
0.44190909,4.225083483,1.700970713
0.44190972,4.225083483,1.700970713
0.44191035,4.228847214,1.700970713
0.44191098,4.232610946,1.704748807
0.44191161,4.228847214,1.704748807
0.44191224,4.228847214,1.704748807
0.44191287,4.225083483,1.704748807
0.4419135,4.217556019,1.704748807
0.44191413,4.225083483,1.700970713
0.44191476,4.225083483,1.704748807
0.44191539,4.228847214,1.7085269
0.44191602,4.232610946,1.791644956
0.44191665,4.228847214,1.814313517
0.44191728,4.221319751,1.810535424
0.44191791,4.225083483,1.810535424
0.44191854,4.225083483,1.80675733
0.44191917,4.228847214,1.810535424
0.4419198,4.232610946,1.810535424
0.44192043,4.232610946,1.810535424
0.44192106,4.236374678,1.810535424
0.44192169,4.228847214,1.80675733
0.44192232,4.228847214,1.802979237
0.44192295,4.225083483,1.80675733
0.44192358,4.228847214,1.810535424
0.44192421,4.232610946,1.814313517
0.44192484,4.232610946,1.810535424
0.44192547,4.228847214,1.80675733
0.4419261,4.232610946,1.844538265
0.44192673,4.228847214,1.859650639
0.44192736,4.225083483,1.859650639
0.44192799,4.225083483,1.863428732
0.44192862,4.225083483,1.863428732
0.44192925,4.225083483,1.859650639
0.44192988,4.225083483,1.863428732
0.44193051,4.228847214,1.863428732
0.44193114,4.225083483,1.863428732
0.44193177,4.221319751,1.859650639
0.4419324,4.225083483,1.859650639
0.44193303,4.228847214,1.863428732
0.44193366,4.228847214,1.863428732
0.44193429,4.228847214,1.863428732
0.44193492,4.225083483,1.859650639
0.44193555,4.225083483,1.859650639
0.44193618,4.225083483,1.829425891
0.44193681,4.228847214,1.829425891
0.44193744,4.228847214,1.829425891
0.44193807,4.228847214,1.833203984
0.4419387,4.225083483,1.833203984
0.44193933,4.225083483,1.829425891
0.44193996,4.228847214,1.825647797
0.44194059,4.232610946,1.825647797
0.44194122,4.228847214,1.829425891
0.44194185,4.225083483,1.829425891
0.44194248,4.221319751,1.833203984
0.44194311,4.225083483,1.829425891
0.44194374,4.228847214,1.829425891
0.44194437,4.221319751,1.829425891
0.441945,4.221319751,1.829425891
0.44194563,4.221319751,1.829425891
