data/2.1.100.c.csv

#Digilent WaveForms Oscilloscope Acquisition,,
#Device Name: Discovery2,,
#Serial Number: SN:210321AC1D4D,,
#Date Time: 2020-12-03 18:46:46.717,,
#Sample rate: 160000Hz,,
#Samples: 8192,,
#Trigger: Source: Channel 1 Type: Edge Condition: Rising Level: 0 V Hyst.: Auto HoldOff: 0 s,,
#Channel 1: Range: 1 V/div Offset: 0 V Attenuation: 1 X,,
#Channel 2: Range: 1 V/div Offset: 0 V Attenuation: 1 X,,
#Wavegen Channel 1: Running,,
#Mode: Simple,,
#Type: Custom1,,
#Frequency: 100 Hz,,
#Period: 10 ms,,
#Amplitude: 500 mV,,
#Offset: 500 mV,,
#Phase: 0 ��,,
#Wavegen Channel 2: Running,,
#Mode: Simple,,
#Type: DC,,
#Offset: 5 V,,
#Power Supplies: ON,,
#Positive Supply: ON,,
#Voltage: 1.6 V,,
#Negative Supply: ON,,
#Voltage: -5 V,,
,,
Time (s),Channel 1 (V),Channel 2 (V)
0.068775,-3.166885654,0.053721964
0.06878125,-3.238396557,0.057500058
0.0687875,-3.22334163,0.057500058
0.06879375,-3.219577899,0.061278151
0.0688,-3.219577899,0.061278151
0.06880625,-3.208286703,0.065056245
0.0688125,-3.204522972,0.065056245
0.06881875,-3.204522972,0.065056245
0.068825,-3.204522972,0.065056245
0.06883125,-3.196995508,0.065056245
0.0688375,-3.196995508,0.065056245
0.06884375,-3.196995508,0.072612432
0.06885,-3.193231777,0.072612432
0.06885625,-3.196995508,0.080168619
0.0688625,-3.193231777,0.083946712
0.06886875,-3.20075924,0.080168619
0.068875,-3.193231777,0.083946712
0.06888125,-3.189468045,0.083946712
0.0688875,-3.185704313,0.083946712
0.06889375,-3.181940581,0.083946712
0.0689,-3.185704313,0.087724806
0.06890625,-3.181940581,0.083946712
0.0689125,-3.185704313,0.083946712
0.06891875,-3.185704313,0.080168619
0.068925,-3.185704313,0.087724806
0.06893125,-3.181940581,0.087724806
0.0689375,-3.185704313,0.083946712
0.06894375,-3.185704313,0.083946712
0.06895,-3.181940581,0.083946712
0.06895625,-3.174413118,0.061278151
0.0689625,-3.17817685,0.061278151
0.06896875,-3.17817685,0.057500058
0.068975,-3.17817685,0.061278151
0.06898125,-3.174413118,0.057500058
0.0689875,-3.174413118,0.061278151
0.06899375,-3.17817685,0.061278151
0.069,-3.174413118,0.057500058
0.06900625,-3.174413118,0.061278151
0.0690125,-3.174413118,0.061278151
0.06901875,-3.174413118,0.057500058
0.069025,-3.17817685,0.057500058
0.06903125,-3.174413118,0.057500058
0.0690375,-3.17817685,0.061278151
0.06904375,-3.17817685,0.061278151
0.06905,-3.181940581,0.061278151
0.06905625,-3.163121923,0.023497217
0.0690625,-3.163121923,0.023497217
0.06906875,-3.166885654,0.02727531
0.069075,-3.166885654,0.023497217
0.06908125,-3.166885654,0.023497217
0.0690875,-3.170649386,0.023497217
0.06909375,-3.170649386,0.02727531
0.0691,-3.170649386,0.023497217
0.06910625,-3.170649386,0.023497217
0.0691125,-3.170649386,0.023497217
0.06911875,-3.174413118,0.023497217
0.069125,-3.170649386,0.023497217
0.06913125,-3.170649386,0.023497217
0.0691375,-3.170649386,0.023497217
0.06914375,-3.170649386,0.023497217
0.06915,-3.170649386,0.023497217
0.06915625,-3.166885654,0.019719123
0.0691625,-3.170649386,0.01594103
0.06916875,-3.166885654,0.01594103
0.069175,-3.166885654,0.01594103
0.06918125,-3.166885654,0.019719123
0.0691875,-3.170649386,0.019719123
0.06919375,-3.166885654,0.01594103
0.0692,-3.166885654,0.01594103
0.06920625,-3.166885654,0.01594103
0.0692125,-3.170649386,0.019719123
0.06921875,-3.166885654,0.019719123
0.069225,-3.166885654,0.019719123
0.06923125,-3.163121923,0.019719123
0.0692375,-3.166885654,0.01594103
0.06924375,-3.166885654,0.019719123
0.06925,-3.166885654,0.019719123
0.06925625,-3.17817685,0.046165777
0.0692625,-3.174413118,0.057500058
0.06926875,-3.17817685,0.057500058
0.069275,-3.17817685,0.057500058
0.06928125,-3.17817685,0.053721964
0.0692875,-3.17817685,0.057500058
0.06929375,-3.17817685,0.057500058
0.0693,-3.17817685,0.061278151
0.06930625,-3.174413118,0.057500058
0.0693125,-3.17817685,0.057500058
0.06931875,-3.17817685,0.057500058
0.069325,-3.17817685,0.057500058
0.06933125,-3.181940581,0.053721964
0.0693375,-3.185704313,0.053721964
0.06934375,-3.181940581,0.057500058
0.06935,-3.185704313,0.057500058
0.06935625,-3.193231777,0.091502899
0.0693625,-3.204522972,0.110393366
0.06936875,-3.204522972,0.110393366
0.069375,-3.20075924,0.110393366
0.06938125,-3.204522972,0.110393366
0.0693875,-3.20075924,0.11417146
0.06939375,-3.20075924,0.110393366
0.0694,-3.20075924,0.106615273
0.06940625,-3.20075924,0.106615273
0.0694125,-3.20075924,0.110393366
0.06941875,-3.20075924,0.110393366
0.069425,-3.20075924,0.110393366
0.06943125,-3.20075924,0.110393366
0.0694375,-3.204522972,0.110393366
0.06944375,-3.20075924,0.11417146
0.06945,-3.204522972,0.110393366
0.06945625,-3.215814167,0.140618114
0.0694625,-3.215814167,0.144396207
0.06946875,-3.219577899,0.144396207
0.069475,-3.219577899,0.144396207
0.06948125,-3.215814167,0.140618114
0.0694875,-3.215814167,0.140618114
0.06949375,-3.215814167,0.140618114
0.0695,-3.219577899,0.144396207
0.06950625,-3.219577899,0.140618114
0.0695125,-3.215814167,0.140618114
0.06951875,-3.212050435,0.144396207
0.069525,-3.215814167,0.144396207
0.06953125,-3.215814167,0.144396207
0.0695375,-3.215814167,0.140618114
0.06954375,-3.219577899,0.140618114
0.06955,-3.215814167,0.140618114
0.06955625,-3.219577899,0.136840021
0.0695625,-3.212050435,0.133061927
0.06956875,-3.208286703,0.133061927
0.069575,-3.215814167,0.133061927
0.06958125,-3.212050435,0.136840021
0.0695875,-3.212050435,0.133061927
0.06959375,-3.212050435,0.136840021
0.0696,-3.215814167,0.133061927
0.06960625,-3.215814167,0.133061927
0.0696125,-3.212050435,0.133061927
0.06961875,-3.212050435,0.133061927
0.069625,-3.215814167,0.133061927
0.06963125,-3.215814167,0.133061927
0.0696375,-3.215814167,0.133061927
0.06964375,-3.212050435,0.133061927
0.06965,-3.215814167,0.129283834
0.06965625,-3.208286703,0.110393366
0.0696625,-3.196995508,0.102837179
0.06966875,-3.20075924,0.102837179
0.069675,-3.20075924,0.099059086
0.06968125,-3.20075924,0.102837179
0.0696875,-3.20075924,0.099059086
0.06969375,-3.20075924,0.102837179
0.0697,-3.196995508,0.102837179
0.06970625,-3.196995508,0.099059086
0.0697125,-3.20075924,0.102837179
0.06971875,-3.20075924,0.102837179
0.069725,-3.20075924,0.106615273
0.06973125,-3.20075924,0.102837179
0.0697375,-3.196995508,0.099059086
0.06974375,-3.196995508,0.099059086
0.06975,-3.196995508,0.102837179
0.06975625,-3.193231777,0.087724806
0.0697625,-3.185704313,0.080168619
0.06976875,-3.189468045,0.076390525
0.069775,-3.189468045,0.080168619
0.06978125,-3.189468045,0.080168619
0.0697875,-3.189468045,0.080168619
0.06979375,-3.189468045,0.080168619
0.0698,-3.193231777,0.080168619
0.06980625,-3.185704313,0.080168619
0.0698125,-3.189468045,0.080168619
0.06981875,-3.193231777,0.080168619
0.069825,-3.193231777,0.080168619
0.06983125,-3.189468045,0.080168619
0.0698375,-3.189468045,0.080168619
0.06984375,-3.193231777,0.080168619
0.06985,-3.189468045,0.076390525
0.06985625,-3.193231777,0.095280992
0.0698625,-3.196995508,0.099059086
0.06986875,-3.193231777,0.099059086
0.069875,-3.193231777,0.099059086
0.06988125,-3.193231777,0.095280992
0.0698875,-3.196995508,0.099059086
0.06989375,-3.196995508,0.095280992
0.0699,-3.196995508,0.099059086
0.06990625,-3.196995508,0.095280992
0.0699125,-3.193231777,0.099059086
0.06991875,-3.193231777,0.099059086
0.069925,-3.196995508,0.099059086
0.06993125,-3.196995508,0.099059086
0.0699375,-3.196995508,0.095280992
0.06994375,-3.196995508,0.099059086
0.06995,-3.196995508,0.095280992
0.06995625,-3.208286703,0.136840021
0.0699625,-3.22334163,0.148174301
0.06996875,-3.219577899,0.148174301
0.069975,-3.219577899,0.148174301
0.06998125,-3.219577899,0.148174301
0.0699875,-3.219577899,0.148174301
0.06999375,-3.22334163,0.148174301
0.07,-3.219577899,0.148174301
0.07000625,-3.219577899,0.148174301
0.0700125,-3.219577899,0.148174301
0.07001875,-3.22334163,0.148174301
0.070025,-3.219577899,0.144396207
0.07003125,-3.219577899,0.148174301
0.0700375,-3.219577899,0.148174301
0.07004375,-3.215814167,0.148174301
0.07005,-3.215814167,0.144396207
0.07005625,-3.227105362,0.178399049
0.0700625,-3.234632826,0.197289516
0.07006875,-3.234632826,0.201067609
0.070075,-3.234632826,0.197289516
0.07008125,-3.234632826,0.197289516
0.0700875,-3.234632826,0.197289516
0.07009375,-3.234632826,0.201067609
0.0701,-3.234632826,0.197289516
0.07010625,-3.234632826,0.197289516
0.0701125,-3.234632826,0.193511422
0.07011875,-3.234632826,0.201067609
0.070125,-3.234632826,0.201067609
0.07013125,-3.230869094,0.197289516
0.0701375,-3.234632826,0.197289516
0.07014375,-3.234632826,0.197289516
0.07015,-3.230869094,0.197289516
0.07015625,-3.238396557,0.204845703
0.0701625,-3.242160289,0.204845703
0.07016875,-3.238396557,0.204845703
0.070175,-3.238396557,0.208623796
0.07018125,-3.238396557,0.208623796
0.0701875,-3.238396557,0.208623796
0.07019375,-3.234632826,0.208623796
0.0702,-3.238396557,0.208623796
0.07020625,-3.234632826,0.208623796
0.0702125,-3.238396557,0.204845703
0.07021875,-3.242160289,0.204845703
0.070225,-3.242160289,0.208623796
0.07023125,-3.242160289,0.21240189
0.0702375,-3.245924021,0.208623796
0.07024375,-3.242160289,0.204845703
0.07025,-3.242160289,0.204845703
0.07025625,-3.234632826,0.182177142
0.0702625,-3.22334163,0.178399049
0.07026875,-3.227105362,0.182177142
0.070275,-3.230869094,0.182177142
0.07028125,-3.227105362,0.182177142
0.0702875,-3.227105362,0.178399049
0.07029375,-3.22334163,0.178399049
0.0703,-3.22334163,0.178399049
0.07030625,-3.227105362,0.178399049
0.0703125,-3.22334163,0.178399049
0.07031875,-3.219577899,0.182177142
0.070325,-3.22334163,0.178399049
0.07033125,-3.22334163,0.178399049
0.0703375,-3.22334163,0.178399049
0.07034375,-3.219577899,0.178399049
0.07035,-3.22334163,0.178399049
0.07035625,-3.215814167,0.151952394
0.0703625,-3.208286703,0.144396207
0.07036875,-3.208286703,0.144396207
0.070375,-3.208286703,0.144396207
0.07038125,-3.215814167,0.144396207
0.0703875,-3.212050435,0.144396207
0.07039375,-3.212050435,0.144396207
0.0704,-3.212050435,0.144396207
0.07040625,-3.208286703,0.148174301
0.0704125,-3.208286703,0.144396207
0.07041875,-3.208286703,0.144396207
0.070425,-3.212050435,0.148174301
0.07043125,-3.212050435,0.148174301
0.0704375,-3.208286703,0.148174301
0.07044375,-3.208286703,0.144396207
0.07045,-3.208286703,0.144396207
0.07045625,-3.208286703,0.144396207
0.0704625,-3.208286703,0.140618114
0.07046875,-3.208286703,0.144396207
0.070475,-3.215814167,0.148174301
0.07048125,-3.215814167,0.140618114
0.0704875,-3.215814167,0.148174301
0.07049375,-3.215814167,0.148174301
0.0705,-3.219577899,0.144396207
0.07050625,-3.219577899,0.144396207
0.0705125,-3.212050435,0.148174301
0.07051875,-3.212050435,0.144396207
0.070525,-3.212050435,0.144396207
0.07053125,-3.212050435,0.144396207
0.0705375,-3.212050435,0.144396207
0.07054375,-3.215814167,0.144396207
0.07055,-3.212050435,0.144396207
0.07055625,-3.22334163,0.163286675
0.0705625,-3.22334163,0.185955236
0.07056875,-3.227105362,0.185955236
0.070575,-3.227105362,0.189733329
0.07058125,-3.227105362,0.189733329
0.0705875,-3.227105362,0.182177142
0.07059375,-3.227105362,0.182177142
0.0706,-3.227105362,0.185955236
0.07060625,-3.22334163,0.185955236
0.0706125,-3.230869094,0.182177142
0.07061875,-3.230869094,0.182177142
0.070625,-3.227105362,0.185955236
0.07063125,-3.230869094,0.189733329
0.0706375,-3.22334163,0.185955236
0.07064375,-3.227105362,0.182177142
0.07065,-3.227105362,0.185955236
0.07065625,-3.242160289,0.208623796
0.0706625,-3.276033875,0.242626637
0.07066875,-3.279797607,0.242626637
0.070675,-3.358835973,0.238848544
0.07068125,-3.72015422,0.242626637
0.0706875,-3.618533463,0.242626637
0.07069375,-3.072792361,0.242626637
0.0707,-2.451776624,0.238848544
0.07070625,-2.297463622,0.242626637
0.0707125,-2.293699891,0.242626637
0.07071875,-2.293699891,0.242626637
0.070725,-2.301227354,0.246404731
0.07073125,-2.301227354,0.238848544
0.0707375,-2.304991086,0.238848544
0.07074375,-2.308754818,0.242626637
0.07075,-2.308754818,0.242626637
0.07075625,-2.308754818,0.261517105
0.0707625,-2.308754818,0.272851385
0.07076875,-2.304991086,0.272851385
0.070775,-2.304991086,0.272851385
0.07078125,-2.308754818,0.269073292
0.0707875,-2.308754818,0.272851385
0.07079375,-2.308754818,0.272851385
0.0708,-2.308754818,0.272851385
0.07080625,-2.308754818,0.272851385
0.0708125,-2.308754818,0.272851385
0.07081875,-2.308754818,0.272851385
0.070825,-2.308754818,0.272851385
0.07083125,-2.308754818,0.272851385
0.0708375,-2.304991086,0.272851385
0.07084375,-2.308754818,0.269073292
0.07085,-2.304991086,0.272851385
0.07085625,-2.304991086,0.265295198
0.0708625,-2.304991086,0.261517105
0.07086875,-2.304991086,0.253960918
0.070875,-2.304991086,0.261517105
0.07088125,-2.304991086,0.257739011
0.0708875,-2.304991086,0.261517105
0.07089375,-2.304991086,0.257739011
0.0709,-2.297463622,0.257739011
0.07090625,-2.301227354,0.257739011
0.0709125,-2.301227354,0.253960918
0.07091875,-2.301227354,0.257739011
0.070925,-2.301227354,0.257739011
0.07093125,-2.301227354,0.257739011
0.0709375,-2.301227354,0.257739011
0.07094375,-2.297463622,0.257739011
0.07095,-2.301227354,0.257739011
0.07095625,-2.301227354,0.238848544
0.0709625,-2.323809745,0.219958077
0.07096875,-2.342628403,0.22373617
0.070975,-2.350155867,0.219958077
0.07098125,-2.35768333,0.219958077
0.0709875,-2.361447062,0.219958077
0.07099375,-2.361447062,0.219958077
0.071,-2.361447062,0.22373617
0.07100625,-2.361447062,0.219958077
0.0710125,-2.365210794,0.219958077
0.07101875,-2.361447062,0.219958077
0.071025,-2.365210794,0.22373617
0.07103125,-2.365210794,0.22373617
0.0710375,-2.361447062,0.219958077
0.07104375,-2.365210794,0.219958077
0.07105,-2.365210794,0.219958077
0.07105625,-2.372738257,0.216179983
0.0710625,-2.760402626,0.201067609
0.07106875,-3.400237022,0.201067609
0.071075,-3.701335561,0.204845703
0.07108125,-3.690044366,0.201067609
0.0710875,-3.336253583,0.201067609
0.07109375,-3.234632826,0.204845703
0.0711,-3.242160289,0.201067609
0.07110625,-3.245924021,0.201067609
0.0711125,-3.242160289,0.204845703
0.07111875,-3.242160289,0.204845703
0.071125,-3.242160289,0.201067609
0.07113125,-3.242160289,0.201067609
0.0711375,-3.242160289,0.201067609
0.07114375,-3.242160289,0.201067609
0.07115,-3.245924021,0.201067609
0.07115625,-3.257215216,0.219958077
0.0711625,-3.268506411,0.227514264
0.07116875,-3.26474268,0.22373617
0.071175,-3.26474268,0.227514264
0.07118125,-3.260978948,0.22373617
0.0711875,-3.260978948,0.22373617
0.07119375,-3.260978948,0.22373617
0.0712,-3.257215216,0.227514264
0.07120625,-3.260978948,0.22373617
0.0712125,-3.260978948,0.22373617
0.07121875,-3.253451484,0.227514264
0.071225,-3.260978948,0.227514264
0.07123125,-3.257215216,0.227514264
0.0712375,-3.253451484,0.22373617
0.07124375,-3.257215216,0.227514264
0.07125,-3.26474268,0.227514264
0.07125625,-3.471747925,0.276629479
0.0712625,-3.471747925,0.280407572
0.07126875,-2.782985017,0.280407572
0.071275,-2.312518549,0.284185665
0.07128125,-2.293699891,0.280407572
0.0712875,-2.289936159,0.280407572
0.07129375,-2.293699891,0.280407572
0.0713,-2.289936159,0.280407572
0.07130625,-2.293699891,0.280407572
0.0713125,-2.293699891,0.284185665
0.07131875,-2.297463622,0.280407572
0.071325,-2.301227354,0.280407572
0.07133125,-2.301227354,0.280407572
0.0713375,-2.304991086,0.276629479
0.07134375,-2.304991086,0.280407572
0.07135,-2.304991086,0.280407572
0.07135625,-2.304991086,0.314410413
0.0713625,-2.301227354,0.3219666
0.07136875,-2.304991086,0.318188507
0.071375,-2.308754818,0.3219666
0.07138125,-2.304991086,0.3219666
0.0713875,-2.301227354,0.318188507
0.07139375,-2.308754818,0.3219666
0.0714,-2.308754818,0.318188507
0.07140625,-2.304991086,0.3219666
0.0714125,-2.304991086,0.318188507
0.07141875,-2.308754818,0.318188507
0.071425,-2.308754818,0.3219666
0.07143125,-2.308754818,0.318188507
0.0714375,-2.304991086,0.318188507
0.07144375,-2.304991086,0.3219666
0.07145,-2.308754818,0.3219666
0.07145625,-2.304991086,0.325744694
0.0714625,-2.304991086,0.325744694
0.07146875,-2.304991086,0.325744694
0.071475,-2.304991086,0.325744694
0.07148125,-2.304991086,0.325744694
0.0714875,-2.304991086,0.325744694
0.07149375,-2.304991086,0.325744694
0.0715,-2.301227354,0.329522787
0.07150625,-2.304991086,0.329522787
0.0715125,-2.304991086,0.325744694
0.07151875,-2.308754818,0.325744694
0.071525,-2.304991086,0.325744694
0.07153125,-2.308754818,0.329522787
0.0715375,-2.308754818,0.325744694
0.07154375,-2.312518549,0.325744694
0.07155,-2.308754818,0.325744694
0.07155625,-2.308754818,0.299298039
0.0715625,-2.308754818,0.295519946
0.07156875,-2.312518549,0.303076133
0.071575,-2.312518549,0.299298039
0.07158125,-2.312518549,0.299298039
0.0715875,-2.312518549,0.299298039
0.07159375,-2.312518549,0.299298039
0.0716,-2.312518549,0.299298039
0.07160625,-2.312518549,0.299298039
0.0716125,-2.308754818,0.299298039
0.07161875,-2.308754818,0.299298039
0.071625,-2.308754818,0.299298039
0.07163125,-2.308754818,0.299298039
0.0716375,-2.304991086,0.299298039
0.07164375,-2.308754818,0.299298039
0.07165,-2.304991086,0.299298039
0.07165625,-2.304991086,0.276629479
0.0716625,-2.304991086,0.269073292
0.07166875,-2.304991086,0.272851385
0.071675,-2.304991086,0.276629479
0.07168125,-2.304991086,0.269073292
0.0716875,-2.304991086,0.272851385
0.07169375,-2.301227354,0.272851385
0.0717,-2.304991086,0.272851385
0.07170625,-2.297463622,0.272851385
0.0717125,-2.301227354,0.272851385
0.07171875,-2.297463622,0.269073292
0.071725,-2.297463622,0.272851385
0.07173125,-2.297463622,0.272851385
0.0717375,-2.301227354,0.276629479
0.07174375,-2.301227354,0.272851385
0.07175,-2.297463622,0.272851385
0.07175625,-2.297463622,0.276629479
0.0717625,-2.301227354,0.272851385
0.07176875,-2.301227354,0.276629479
0.071775,-2.297463622,0.272851385
0.07178125,-2.297463622,0.272851385
0.0717875,-2.301227354,0.276629479
0.07179375,-2.297463622,0.276629479
0.0718,-2.297463622,0.272851385
0.07180625,-2.301227354,0.272851385
0.0718125,-2.301227354,0.272851385
0.07181875,-2.301227354,0.272851385
0.071825,-2.301227354,0.272851385
0.07183125,-2.304991086,0.272851385
0.0718375,-2.304991086,0.272851385
0.07184375,-2.304991086,0.276629479
0.07185,-2.301227354,0.276629479
0.07185625,-2.304991086,0.303076133
0.0718625,-2.301227354,0.314410413
0.07186875,-2.304991086,0.314410413
0.071875,-2.301227354,0.31063232
0.07188125,-2.301227354,0.314410413
0.0718875,-2.304991086,0.31063232
0.07189375,-2.301227354,0.31063232
0.0719,-2.304991086,0.314410413
0.07190625,-2.301227354,0.314410413
0.0719125,-2.301227354,0.31063232
0.07191875,-2.301227354,0.31063232
0.071925,-2.301227354,0.31063232
0.07193125,-2.304991086,0.31063232
0.0719375,-2.301227354,0.31063232
0.07194375,-2.301227354,0.31063232
0.07195,-2.301227354,0.31063232
0.07195625,-2.304991086,0.344635161
0.0719625,-2.304991086,0.367303722
0.07196875,-2.301227354,0.367303722
0.071975,-2.301227354,0.367303722
0.07198125,-2.304991086,0.363525628
0.0719875,-2.304991086,0.367303722
0.07199375,-2.304991086,0.367303722
0.072,-2.301227354,0.363525628
0.07200625,-2.304991086,0.363525628
0.0720125,-2.301227354,0.363525628
0.07201875,-2.297463622,0.367303722
0.072025,-2.301227354,0.363525628
0.07203125,-2.301227354,0.363525628
0.0720375,-2.297463622,0.367303722
0.07204375,-2.301227354,0.363525628
0.07205,-2.304991086,0.367303722
0.07205625,-2.301227354,0.389972282
0.0720625,-2.304991086,0.389972282
0.07206875,-2.304991086,0.389972282
0.072075,-2.304991086,0.389972282
0.07208125,-2.304991086,0.389972282
0.0720875,-2.301227354,0.389972282
0.07209375,-2.308754818,0.389972282
0.0721,-2.304991086,0.389972282
0.07210625,-2.304991086,0.389972282
0.0721125,-2.304991086,0.389972282
0.07211875,-2.304991086,0.389972282
0.072125,-2.308754818,0.389972282
0.07213125,-2.304991086,0.389972282
0.0721375,-2.304991086,0.389972282
0.07214375,-2.308754818,0.389972282
0.07215,-2.304991086,0.389972282
0.07215625,-2.304991086,0.378638002
0.0721625,-2.304991086,0.378638002
0.07216875,-2.301227354,0.374859909
0.072175,-2.304991086,0.374859909
0.07218125,-2.304991086,0.378638002
0.0721875,-2.304991086,0.374859909
0.07219375,-2.304991086,0.374859909
0.0722,-2.304991086,0.374859909
0.07220625,-2.304991086,0.374859909
0.0722125,-2.304991086,0.374859909
