data/2.2.100.t.csv

#Digilent WaveForms Oscilloscope Acquisition,,
#Device Name: Discovery2,,
#Serial Number: SN:210321AC1D4D,,
#Date Time: 2020-12-03 18:54:55.030,,
#Sample rate: 80000Hz,,
#Samples: 8192,,
#Trigger: Source: Channel 1 Type: Edge Condition: Rising Level: 0 V Hyst.: Auto HoldOff: 0 s,,
#Channel 1: Range: 1 V/div Offset: 0 V Attenuation: 1 X,,
#Channel 2: Range: 1 V/div Offset: 0 V Attenuation: 1 X,,
#Wavegen Channel 1: Running,,
#Mode: Simple,,
#Type: Triangle,,
#Frequency: 100 Hz,,
#Period: 10 ms,,
#Amplitude: 500 mV,,
#Offset: 500 mV,,
#Symmetry: 50 %,,
#Phase: 0 ��,,
#Wavegen Channel 2: Running,,
#Mode: Simple,,
#Type: DC,,
#Offset: 5 V,,
#Power Supplies: ON,,
#Positive Supply: ON,,
#Voltage: 1.6 V,,
#Negative Supply: ON,,
#Voltage: -5 V,,
,,
Time (s),Channel 1 (V),Channel 2 (V)
0.026275,-1.917326717,0.499536993
0.0262875,-1.921090448,0.503315086
0.0263,-1.921090448,0.50709318
0.0263125,-1.92485418,0.50709318
0.026325,-1.928617912,0.510871273
0.0263375,-1.928617912,0.510871273
0.02635,-1.932381644,0.51842746
0.0263625,-1.932381644,0.51842746
0.026375,-1.932381644,0.522205554
0.0263875,-1.932381644,0.525983647
0.0264,-1.932381644,0.525983647
0.0264125,-1.932381644,0.52976174
0.026425,-1.932381644,0.533539834
0.0264375,-1.932381644,0.537317927
0.02645,-1.939909107,0.541096021
0.0264625,-1.936145375,0.541096021
0.026475,-1.936145375,0.544874114
0.0264875,-1.939909107,0.544874114
0.0265,-1.943672839,0.548652208
0.0265125,-1.943672839,0.548652208
0.026525,-1.947436571,0.552430301
0.0265375,-1.943672839,0.556208395
0.02655,-1.943672839,0.559986488
0.0265625,-1.943672839,0.559986488
0.026575,-1.943672839,0.563764582
0.0265875,-1.943672839,0.563764582
0.0266,-1.947436571,0.567542675
0.0266125,-1.947436571,0.571320769
0.026625,-1.951200302,0.575098862
0.0266375,-1.954964034,0.578876955
0.02665,-1.951200302,0.578876955
0.0266625,-1.954964034,0.582655049
0.026675,-1.954964034,0.586433142
0.0266875,-1.958727766,0.586433142
0.0267,-1.958727766,0.586433142
0.0267125,-1.962491498,0.590211236
0.026725,-1.966255229,0.593989329
0.0267375,-1.966255229,0.593989329
0.02675,-1.970018961,0.597767423
0.0267625,-1.970018961,0.597767423
0.026775,-1.970018961,0.601545516
0.0267875,-1.977546425,0.60532361
0.0268,-1.977546425,0.60532361
0.0268125,-1.981310156,0.609101703
0.026825,-1.98883762,0.609101703
0.0268375,-1.992601352,0.612879797
0.02685,-1.992601352,0.61665789
0.0268625,-2.000128815,0.620435983
0.026875,-2.003892547,0.620435983
0.0268875,-2.007656278,0.624214077
0.0269,-2.01142001,0.62799217
0.0269125,-2.015183742,0.62799217
0.026925,-2.022711205,0.631770264
0.0269375,-2.026474937,0.631770264
0.02695,-2.030238669,0.635548357
0.0269625,-2.049057328,0.639326451
0.026975,-2.342628403,0.643104544
0.0269875,-2.406611843,0.643104544
0.027,-1.985073888,0.646882638
0.0270125,-1.205981418,0.650660731
0.027025,-1.138234247,0.650660731
0.0270375,-1.141997978,0.654438825
0.02705,-1.14576171,0.658216918
0.0270625,-1.149525442,0.661995012
0.027075,-1.153289174,0.661995012
0.0270875,-1.153289174,0.661995012
0.0271,-1.153289174,0.665773105
0.0271125,-1.157052905,0.669551198
0.027125,-1.157052905,0.673329292
0.0271375,-1.157052905,0.677107385
0.02715,-1.160816637,0.677107385
0.0271625,-1.160816637,0.677107385
0.027175,-1.160816637,0.680885479
0.0271875,-1.157052905,0.684663572
0.0272,-1.153289174,0.688441666
0.0272125,-1.149525442,0.688441666
0.027225,-1.149525442,0.688441666
0.0272375,-1.141997978,0.695997853
0.02725,-1.141997978,0.699775946
0.0272625,-1.138234247,0.70355404
0.027275,-1.134470515,0.70355404
0.0272875,-1.130706783,0.707332133
0.0273,-1.126943051,0.711110227
0.0273125,-1.12317932,0.711110227
0.027325,-1.119415588,0.711110227
0.0273375,-1.115651856,0.71488832
0.02735,-1.111888124,0.718666413
0.0273625,-1.108124393,0.71488832
0.027375,-1.104360661,0.722444507
0.0273875,-1.100596929,0.722444507
0.0274,-1.096833197,0.7262226
0.0274125,-1.096833197,0.7262226
0.027425,-1.096833197,0.7262226
0.0274375,-1.119415588,0.733778787
0.02745,-1.130706783,0.733778787
0.0274625,-1.134470515,0.737556881
0.027475,-1.141997978,0.737556881
0.0274875,-1.14576171,0.741334974
0.0275,-1.149525442,0.741334974
0.0275125,-1.149525442,0.745113068
0.027525,-1.157052905,0.748891161
0.0275375,-1.160816637,0.752669255
0.02755,-1.160816637,0.752669255
0.0275625,-1.164580369,0.752669255
0.027575,-1.168344101,0.760225442
0.0275875,-1.175871564,0.760225442
0.0276,-1.175871564,0.764003535
0.0276125,-1.179635296,0.764003535
0.027625,-1.179635296,0.771559722
0.0276375,-1.183399027,0.771559722
0.02765,-1.179635296,0.775337815
0.0276625,-1.179635296,0.775337815
0.027675,-1.179635296,0.779115909
0.0276875,-1.187162759,0.782894002
0.0277,-1.187162759,0.782894002
0.0277125,-1.187162759,0.786672096
0.027725,-1.187162759,0.786672096
0.0277375,-1.190926491,0.790450189
0.02775,-1.187162759,0.794228283
0.0277625,-1.187162759,0.794228283
0.027775,-1.190926491,0.798006376
0.0277875,-1.190926491,0.80178447
0.0278,-1.190926491,0.805562563
0.0278125,-1.190926491,0.805562563
0.027825,-1.194690223,0.809340657
0.0278375,-1.190926491,0.81311875
0.02785,-1.190926491,0.81311875
0.0278625,-1.194690223,0.816896843
0.027875,-1.190926491,0.816896843
0.0278875,-1.194690223,0.820674937
0.0279,-1.194690223,0.820674937
0.0279125,-1.194690223,0.828231124
0.027925,-1.190926491,0.828231124
0.0279375,-1.190926491,0.832009217
0.02795,-1.194690223,0.832009217
0.0279625,-1.190926491,0.835787311
0.027975,-1.194690223,0.839565404
0.0279875,-1.194690223,0.839565404
0.028,-1.194690223,0.847121591
0.0280125,-1.194690223,0.850899685
0.028025,-1.194690223,0.850899685
0.0280375,-1.194690223,0.850899685
0.02805,-1.194690223,0.858455872
0.0280625,-1.194690223,0.858455872
0.028075,-1.194690223,0.862233965
0.0280875,-1.194690223,0.862233965
0.0281,-1.198453954,0.862233965
0.0281125,-1.194690223,0.866012058
0.028125,-1.198453954,0.869790152
0.0281375,-1.198453954,0.873568245
0.02815,-1.198453954,0.873568245
0.0281625,-1.202217686,0.877346339
0.028175,-1.202217686,0.877346339
0.0281875,-1.202217686,0.881124432
0.0282,-1.202217686,0.881124432
0.0282125,-1.205981418,0.884902526
0.028225,-1.20974515,0.888680619
0.0282375,-1.20974515,0.892458713
0.02825,-1.213508881,0.892458713
0.0282625,-1.213508881,0.896236806
0.028275,-1.217272613,0.9000149
0.0282875,-1.221036345,0.903792993
0.0283,-1.224800077,0.903792993
0.0283125,-1.224800077,0.907571086
0.028325,-1.258673662,0.907571086
0.0283375,-1.288783516,0.915127273
0.02835,-1.303838443,0.915127273
0.0283625,-1.322657102,0.918905367
0.028375,-1.333948297,0.918905367
0.0283875,-1.352766956,0.92268346
0.0284,-1.367821883,0.926461554
0.0284125,-1.38287681,0.926461554
0.028425,-1.397931737,0.930239647
0.0284375,-1.412986664,0.934017741
0.02845,-1.431805322,0.934017741
0.0284625,-1.446860249,0.937795834
0.028475,-1.461915176,0.937795834
0.0284875,-1.480733835,0.941573928
0.0285,-1.495788762,0.945352021
0.0285125,-1.499552494,0.949130115
0.028525,-1.375349346,0.949130115
0.0285375,-0.419361484,0.956686301
0.02855,-0.125790409,0.952908208
0.0285625,-0.125790409,0.956686301
0.028575,-0.12955414,0.956686301
0.0285875,-0.137081604,0.964242488
0.0286,-0.137081604,0.964242488
0.0286125,-0.140845336,0.968020582
0.028625,-0.140845336,0.971798675
0.0286375,-0.144609067,0.971798675
0.02865,-0.144609067,0.975576769
0.0286625,-0.144609067,0.975576769
0.028675,-0.144609067,0.979354862
0.0286875,-0.148372799,0.983132956
0.0287,-0.148372799,0.983132956
0.0287125,-0.148372799,0.986911049
0.028725,-0.148372799,0.990689143
0.0287375,-0.148372799,0.994467236
0.02875,-0.144609067,0.990689143
0.0287625,-0.148372799,0.99824533
0.028775,-0.148372799,0.99824533
0.0287875,-0.148372799,1.005801516
0.0288,-0.148372799,1.002023423
0.0288125,-0.148372799,1.005801516
0.028825,-0.148372799,1.00957961
0.0288375,-0.148372799,1.013357703
0.02885,-0.148372799,1.00957961
0.0288625,-0.148372799,1.005801516
0.028875,-0.148372799,1.002023423
0.0288875,-0.148372799,1.002023423
0.0289,-0.144609067,0.99824533
0.0289125,-0.148372799,0.994467236
0.028925,-0.144609067,0.994467236
0.0289375,-0.144609067,0.990689143
0.02895,-0.148372799,0.986911049
0.0289625,-0.140845336,0.986911049
0.028975,-0.148372799,0.983132956
0.0289875,-0.148372799,0.979354862
0.029,-0.148372799,0.975576769
0.0290125,-0.144609067,0.975576769
0.029025,-0.148372799,0.975576769
0.0290375,-0.144609067,0.971798675
0.02905,-0.144609067,0.968020582
0.0290625,-0.148372799,0.964242488
0.029075,-0.144609067,0.964242488
0.0290875,-0.144609067,0.960464395
0.0291,-0.144609067,0.960464395
0.0291125,-0.144609067,0.952908208
0.029125,-0.144609067,0.952908208
0.0291375,-0.144609067,0.952908208
0.02915,-0.144609067,0.945352021
0.0291625,-0.144609067,0.945352021
0.029175,-0.144609067,0.941573928
0.0291875,-0.144609067,0.941573928
0.0292,-0.144609067,0.937795834
0.0292125,-0.144609067,0.937795834
0.029225,-0.140845336,0.934017741
0.0292375,-0.144609067,0.930239647
0.02925,-0.144609067,0.930239647
0.0292625,-0.144609067,0.926461554
0.029275,-0.144609067,0.92268346
0.0292875,-0.144609067,0.918905367
0.0293,-0.144609067,0.915127273
0.0293125,-0.144609067,0.915127273
0.029325,-0.144609067,0.91134918
0.0293375,-0.144609067,0.91134918
0.02935,-0.144609067,0.907571086
0.0293625,-0.144609067,0.903792993
0.029375,-0.140845336,0.903792993
0.0293875,-0.148372799,0.9000149
0.0294,-0.140845336,0.896236806
0.0294125,-0.144609067,0.892458713
0.029425,-0.140845336,0.892458713
0.0294375,-0.140845336,0.888680619
0.02945,-0.140845336,0.884902526
0.0294625,-0.144609067,0.884902526
0.029475,-0.140845336,0.881124432
0.0294875,-0.144609067,0.881124432
0.0295,-0.140845336,0.877346339
0.0295125,-0.140845336,0.877346339
0.029525,-0.144609067,0.873568245
0.0295375,-0.140845336,0.869790152
0.02955,-0.144609067,0.869790152
0.0295625,-0.144609067,0.866012058
0.029575,-0.140845336,0.862233965
0.0295875,-0.144609067,0.862233965
0.0296,-0.140845336,0.858455872
0.0296125,-0.144609067,0.858455872
0.029625,-0.140845336,0.850899685
0.0296375,-0.144609067,0.850899685
0.02965,-0.144609067,0.850899685
0.0296625,-0.144609067,0.843343498
0.029675,-0.144609067,0.843343498
0.0296875,-0.144609067,0.839565404
0.0297,-0.144609067,0.839565404
0.0297125,-0.144609067,0.835787311
0.029725,-0.144609067,0.832009217
0.0297375,-0.144609067,0.828231124
0.02975,-0.144609067,0.828231124
0.0297625,-0.140845336,0.82445303
0.029775,-0.140845336,0.820674937
0.0297875,-0.144609067,0.816896843
0.0298,-0.140845336,0.816896843
0.0298125,-0.140845336,0.81311875
0.029825,-0.140845336,0.809340657
0.0298375,-0.140845336,0.81311875
0.02985,-0.140845336,0.805562563
0.0298625,-0.140845336,0.805562563
0.029875,-0.140845336,0.80178447
0.0298875,-0.137081604,0.798006376
0.0299,-0.140845336,0.794228283
0.0299125,-0.137081604,0.794228283
0.029925,-0.140845336,0.794228283
0.0299375,-0.140845336,0.790450189
0.02995,-0.140845336,0.790450189
0.0299625,-0.140845336,0.786672096
0.029975,-0.137081604,0.782894002
0.0299875,-0.137081604,0.779115909
0.03,-0.140845336,0.779115909
0.0300125,-0.140845336,0.775337815
0.030025,-0.137081604,0.775337815
0.0300375,-0.140845336,0.767781628
0.03005,-0.140845336,0.764003535
0.0300625,-0.140845336,0.764003535
0.030075,-0.140845336,0.764003535
0.0300875,-0.140845336,0.760225442
0.0301,-0.140845336,0.760225442
0.0301125,-0.140845336,0.752669255
0.030125,-0.144609067,0.752669255
0.0301375,-0.144609067,0.748891161
0.03015,-0.144609067,0.745113068
0.0301625,-0.148372799,0.745113068
0.030175,-0.148372799,0.745113068
0.0301875,-0.152136531,0.741334974
0.0302,-0.155900263,0.737556881
0.0302125,-0.415597753,0.733778787
0.030225,-1.160816637,0.733778787
0.0302375,-1.198453954,0.733778787
0.03025,-1.190926491,0.7262226
0.0302625,-1.187162759,0.730000694
0.030275,-1.183399027,0.722444507
0.0302875,-1.183399027,0.722444507
0.0303,-1.179635296,0.722444507
0.0303125,-1.175871564,0.718666413
0.030325,-1.175871564,0.718666413
0.0303375,-1.175871564,0.71488832
0.03035,-1.172107832,0.711110227
0.0303625,-1.172107832,0.707332133
0.030375,-1.168344101,0.707332133
0.0303875,-1.168344101,0.70355404
0.0304,-1.168344101,0.70355404
0.0304125,-1.168344101,0.699775946
0.030425,-1.164580369,0.695997853
0.0304375,-1.164580369,0.695997853
0.03045,-1.160816637,0.688441666
0.0304625,-1.164580369,0.688441666
0.030475,-1.164580369,0.684663572
0.0304875,-1.164580369,0.684663572
0.0305,-1.160816637,0.680885479
0.0305125,-1.160816637,0.677107385
0.030525,-1.160816637,0.677107385
0.0305375,-1.160816637,0.669551198
0.03055,-1.160816637,0.673329292
0.0305625,-1.157052905,0.665773105
0.030575,-1.157052905,0.665773105
0.0305875,-1.157052905,0.661995012
0.0306,-1.157052905,0.658216918
0.0306125,-1.157052905,0.654438825
0.030625,-1.160816637,0.654438825
0.0306375,-1.157052905,0.654438825
0.03065,-1.157052905,0.650660731
0.0306625,-1.157052905,0.646882638
0.030675,-1.157052905,0.643104544
0.0306875,-1.157052905,0.643104544
0.0307,-1.160816637,0.639326451
0.0307125,-1.172107832,0.639326451
0.030725,-1.239855004,0.635548357
0.0307375,-1.601173251,0.631770264
0.03075,-2.195842865,0.631770264
0.0307625,-2.35768333,0.624214077
0.030775,-2.041529864,0.624214077
0.0307875,-2.003892547,0.620435983
0.0308,-2.000128815,0.620435983
0.0308125,-1.996365083,0.61665789
0.030825,-1.996365083,0.61665789
0.0308375,-1.98883762,0.61665789
0.03085,-1.985073888,0.612879797
0.0308625,-1.981310156,0.609101703
0.030875,-1.977546425,0.60532361
0.0308875,-1.977546425,0.60532361
0.0309,-1.973782693,0.601545516
0.0309125,-1.970018961,0.597767423
0.030925,-1.970018961,0.597767423
0.0309375,-1.966255229,0.593989329
0.03095,-1.966255229,0.590211236
0.0309625,-1.962491498,0.590211236
0.030975,-1.962491498,0.586433142
0.0309875,-1.958727766,0.582655049
0.031,-1.958727766,0.582655049
0.0310125,-1.954964034,0.578876955
0.031025,-1.954964034,0.578876955
0.0310375,-1.954964034,0.575098862
0.03105,-1.947436571,0.571320769
0.0310625,-1.947436571,0.567542675
0.031075,-1.947436571,0.567542675
0.0310875,-1.947436571,0.567542675
0.0311,-1.943672839,0.563764582
0.0311125,-1.943672839,0.559986488
0.031125,-1.939909107,0.559986488
0.0311375,-1.939909107,0.552430301
0.03115,-1.939909107,0.556208395
0.0311625,-1.939909107,0.552430301
0.031175,-1.936145375,0.548652208
0.0311875,-1.939909107,0.544874114
0.0312,-1.936145375,0.544874114
0.0312125,-1.936145375,0.537317927
0.031225,-1.936145375,0.541096021
0.0312375,-1.936145375,0.533539834
0.03125,-1.936145375,0.533539834
0.0312625,-1.936145375,0.533539834
0.031275,-1.936145375,0.525983647
0.0312875,-1.936145375,0.522205554
0.0313,-1.932381644,0.522205554
0.0313125,-1.932381644,0.51842746
0.031325,-1.936145375,0.514649367
0.0313375,-1.932381644,0.514649367
0.03135,-1.932381644,0.50709318
0.0313625,-1.928617912,0.50709318
0.031375,-1.928617912,0.50709318
0.0313875,-1.928617912,0.499536993
0.0314,-1.92485418,0.503315086
0.0314125,-1.92485418,0.495758899
0.031425,-1.92485418,0.491980806
0.0314375,-1.928617912,0.491980806
0.03145,-1.932381644,0.488202712
0.0314625,-1.928617912,0.488202712
0.031475,-1.928617912,0.484424619
0.0314875,-1.928617912,0.480646525
0.0315,-1.928617912,0.476868432
0.0315125,-1.928617912,0.476868432
0.031525,-1.928617912,0.473090339
0.0315375,-1.92485418,0.473090339
0.03155,-1.928617912,0.469312245
0.0315625,-1.92485418,0.469312245
0.031575,-1.92485418,0.465534152
0.0315875,-1.928617912,0.461756058
0.0316,-1.928617912,0.461756058
0.0316125,-1.928617912,0.457977965
0.031625,-1.92485418,0.454199871
0.0316375,-1.92485418,0.450421778
0.03165,-1.928617912,0.450421778
0.0316625,-1.928617912,0.446643684
0.031675,-1.932381644,0.442865591
0.0316875,-1.928617912,0.442865591
0.0317,-1.928617912,0.439087497
0.0317125,-1.928617912,0.435309404
0.031725,-1.928617912,0.43153131
0.0317375,-1.928617912,0.43153131
0.03175,-1.932381644,0.427753217
0.0317625,-1.932381644,0.427753217
0.031775,-1.932381644,0.423975124
0.0317875,-1.932381644,0.423975124
0.0318,-1.932381644,0.42019703
0.0318125,-1.932381644,0.416418937
0.031825,-1.932381644,0.412640843
0.0318375,-1.936145375,0.40886275
0.03185,-1.936145375,0.40886275
0.0318625,-1.936145375,0.405084656
0.031875,-1.936145375,0.401306563
0.0318875,-1.936145375,0.397528469
0.0319,-1.939909107,0.397528469
0.0319125,-1.939909107,0.393750376
0.031925,-1.943672839,0.393750376
0.0319375,-1.958727766,0.389972282
0.03195,-2.297463622,0.389972282
0.0319625,-2.496941405,0.389972282
0.031975,-2.459304087,0.386194189
0.0319875,-2.459304087,0.382416095
0.032,-2.451776624,0.382416095
0.0320125,-2.451776624,0.378638002
0.032025,-2.44424916,0.374859909
0.0320375,-2.451776624,0.374859909
0.03205,-2.448012892,0.371081815
0.0320625,-2.448012892,0.367303722
0.032075,-2.448012892,0.367303722
0.0320875,-2.448012892,0.363525628
0.0321,-2.448012892,0.363525628
0.0321125,-2.448012892,0.359747535
0.032125,-2.44424916,0.355969441
0.0321375,-2.448012892,0.355969441
0.03215,-2.448012892,0.348413254
0.0321625,-2.44424916,0.348413254
0.032175,-2.448012892,0.344635161
0.0321875,-2.44424916,0.344635161
0.0322,-2.44424916,0.340857067
0.0322125,-2.44424916,0.340857067
0.032225,-2.44424916,0.337078974
0.0322375,-2.448012892,0.33330088
0.03225,-2.44424916,0.329522787
0.0322625,-2.44424916,0.325744694
0.032275,-2.448012892,0.325744694
0.0322875,-2.448012892,0.325744694
0.0323,-2.44424916,0.318188507
0.0323125,-2.44424916,0.318188507
0.032325,-2.44424916,0.314410413
0.0323375,-2.44424916,0.314410413
0.03235,-2.44424916,0.31063232
0.0323625,-2.44424916,0.306854226
0.032375,-2.44424916,0.303076133
0.0323875,-2.440485429,0.303076133
0.0324,-2.44424916,0.303076133
0.0324125,-2.44424916,0.299298039
0.032425,-2.448012892,0.295519946
0.0324375,-2.448012892,0.295519946
0.03245,-2.44424916,0.291741852
0.0324625,-2.44424916,0.291741852
0.032475,-2.448012892,0.287963759
0.0324875,-2.44424916,0.287963759
0.0325,-2.44424916,0.284185665
0.0325125,-2.440485429,0.280407572
0.032525,-2.440485429,0.280407572
0.0325375,-2.436721697,0.280407572
0.03255,-2.440485429,0.276629479
0.0325625,-2.436721697,0.272851385
0.032575,-2.436721697,0.269073292
0.0325875,-2.436721697,0.269073292
0.0326,-2.432957965,0.265295198
0.0326125,-2.432957965,0.261517105
0.032625,-2.432957965,0.261517105
0.0326375,-2.436721697,0.257739011
0.03265,-2.436721697,0.253960918
0.0326625,-2.432957965,0.250182824
0.032675,-2.436721697,0.250182824
0.0326875,-2.432957965,0.246404731
0.0327,-2.432957965,0.246404731
0.0327125,-2.436721697,0.242626637
0.032725,-2.440485429,0.238848544
0.0327375,-2.440485429,0.238848544
0.03275,-2.436721697,0.235070451
0.0327625,-2.440485429,0.235070451
0.032775,-2.440485429,0.231292357
0.0327875,-2.44424916,0.227514264
0.0328,-2.451776624,0.22373617
0.0328125,-2.583507235,0.219958077
0.032825,-3.00504519,0.216179983
0.0328375,-2.843204725,0.216179983
0.03285,-2.846968456,0.216179983
0.0328625,-2.843204725,0.208623796
0.032875,-2.839440993,0.208623796
0.0328875,-2.835677261,0.208623796
0.0329,-2.835677261,0.204845703
0.0329125,-2.835677261,0.201067609
0.032925,-2.835677261,0.197289516
0.0329375,-2.831913529,0.197289516
0.03295,-2.828149798,0.193511422
0.0329625,-2.824386066,0.193511422
0.032975,-2.820622334,0.189733329
0.0329875,-2.820622334,0.185955236
0.033,-2.816858603,0.182177142
0.0330125,-2.813094871,0.182177142
0.033025,-2.813094871,0.178399049
0.0330375,-2.809331139,0.178399049
0.03305,-2.805567407,0.174620955
0.0330625,-2.805567407,0.170842862
0.033075,-2.801803676,0.170842862
0.0330875,-2.801803676,0.167064768
0.0331,-2.801803676,0.167064768
0.0331125,-2.798039944,0.159508581
0.033125,-2.794276212,0.159508581
0.0331375,-2.794276212,0.155730488
0.03315,-2.794276212,0.155730488
0.0331625,-2.786748749,0.151952394
0.033175,-2.786748749,0.148174301
0.0331875,-2.786748749,0.144396207
0.0332,-2.782985017,0.144396207
0.0332125,-2.786748749,0.140618114
0.033225,-2.786748749,0.136840021
0.0332375,-2.782985017,0.136840021
0.03325,-2.782985017,0.129283834
0.0332625,-2.779221285,0.129283834
0.033275,-2.775457553,0.12550574
0.0332875,-2.771693822,0.12550574
0.0333,-2.76793009,0.121727647
0.0333125,-2.76793009,0.117949553
0.033325,-2.76793009,0.117949553
0.0333375,-2.760402626,0.11417146
