data/3.0.4.csv

#Digilent WaveForms Oscilloscope Acquisition
#Device Name: Discovery2
#Serial Number: SN:210321AC1D4D
#Date Time: 2020-12-07 16:04:44.104
#Sample rate: 400Hz
#Samples: 8192
#Trigger: Source: Channel 1 Type: Edge Condition: Rising Level: 0 V Hyst.: Auto HoldOff: 0 s
#Channel 1: Range: 500 mV/div Offset: 0 V Attenuation: 1 X
#Channel 2: Range: 2 V/div Offset: 0 V Attenuation: 1 X
#Wavegen Channel 1: Running
#Mode: Simple
#Type: Sine
#Frequency: 1 Hz
#Period: 1 s
#Amplitude: 500 uV
#Offset: 1 V
#Symmetry: 50 %
#Phase: 0 ��
#Power Supplies: ON
#Positive Supply: ON
#Voltage: 5 V
#Negative Supply: ON
#Voltage: -5 V

Time (s),Channel 1 (V),Channel 2 (V)
-11.9985843373494,-0.1401267908425547,0.4504217777622427
-11.9960843373494,-0.1479926049420821,0.4504217777622427
-11.9935843373494,-0.1562004109589876,0.4504217777622427
-11.9910843373494,-0.1654341927280022,0.4504217777622427
-11.9885843373494,-0.1750099664143877,0.4504217777622427
-11.9860843373494,-0.1839017562660356,0.4504217777622427
-11.9835843373494,-0.193135538035046,0.4504217777622427
-11.9810843373494,-0.2033952955561734,0.4504217777622427
-11.9785843373494,-0.2126290773251838,0.4504217777622427
-11.9760843373494,-0.2222048510115735,0.4504217777622427
-11.9735843373494,-0.231780624697959,0.4541998712228323
-11.9710843373494,-0.2416983903017154,0.4541998712228323
-11.9685843373494,-0.2505901801533635,0.4541998712228323
-11.9660843373494,-0.2601659538397447,0.4541998712228323
-11.9635843373494,-0.2690577436913884,0.4504217777622427
-11.9610843373494,-0.2772655497082865,0.4504217777622427
-11.9585843373494,-0.2851313638078212,0.4504217777622427
-11.9560843373494,-0.293681161742094,0.4504217777622427
-11.9535843373494,-0.3018889677589959,0.4504217777622427
-11.9510843373494,-0.3104387656932727,0.4504217777622427
-11.9485843373494,-0.3193305555449124,0.4504217777622427
-11.9460843373494,-0.3282223453965561,0.4504217777622427
-11.9435843373494,-0.3357461675787127,0.4504217777622427
-11.9410843373494,-0.3429279978435085,0.4504217777622427
-11.9385843373494,-0.3501098281082944,0.4504217777622427
-11.9360843373494,-0.3566076745383417,0.4504217777622427
-11.9335843373494,-0.3634475128857568,0.4541998712228306
-11.9310843373494,-0.3713133269852909,0.4541998712228323
-11.9285843373494,-0.3781531653327092,0.4541998712228323
-11.9260843373494,-0.3846510117627565,0.4541998712228323
-11.9235843373494,-0.3918328420275487,0.4541998712228323
-11.9210843373494,-0.3986726803749638,0.4541998712228323
-11.9185843373494,-0.4038025591355275,0.4541998712228323
-11.9160843373494,-0.4092744298134596,0.4541998712228323
-11.9135843373494,-0.4154302843261385,0.4541998712228323
-11.9110843373494,-0.4205601630867022,0.4541998712228323
-11.9085843373494,-0.4250060580125241,0.4541998712228323
-11.9060843373494,-0.4304779286904606,0.4541998712228323
-11.9035843373494,-0.4349238236162805,0.4541998712228323
-11.9010843373494,-0.4386857347073605,0.4504217777622427
-11.8985843373494,-0.4427896377158095,0.4541998712228306
-11.8960843373494,-0.4465515488068915,0.4541998712228323
-11.8935843373494,-0.4496294760632297,0.4541998712228323
-11.8910843373494,-0.4530493952369388,0.4541998712228323
-11.8885843373494,-0.4557853305759067,0.4541998712228306
-11.8860843373494,-0.4571532982453897,0.4504217777622427
-11.8835843373494,-0.4581792739975025,0.4504217777622427
-11.8810843373494,-0.4595472416669855,0.4504217777622427
-11.8785843373494,-0.4605732174190992,0.4504217777622427
-11.8760843373494,-0.4612572012538406,0.4504217777622427
-11.8735843373494,-0.4636511446754371,0.4504217777622427
-11.8710843373494,-0.4657030961796615,0.4504217777622427
-11.8685843373494,-0.467755047683888,0.4504217777622427
-11.8660843373494,-0.4704909830228552,0.4504217777622427
-11.8635843373494,-0.4735689102791935,0.4504217777622427
-11.8610843373494,-0.4766468375355332,0.4504217777622427
-11.8585843373494,-0.4800667567092408,0.4504217777622427
-11.8560843373494,-0.4838286678003208,0.4504217777622427
-11.8535843373494,-0.4869065950566576,0.4504217777622427
-11.8510843373494,-0.4903265142303681,0.4504217777622427
-11.8485843373494,-0.4944304172388191,0.4504217777622427
-11.8460843373494,-0.4988763121646409,0.4504217777622427
-11.8435843373494,-0.5029802151730941,0.4504217777622427
-11.8410843373494,-0.5077681020162846,0.4504217777622427
-11.8385843373494,-0.5118720050247355,0.4504217777622427
-11.8360843373494,-0.5156339161158139,0.4466436843016548
-11.8335843373494,-0.5200798110416375,0.4504217777622427
-11.8310843373494,-0.5248676978848302,0.4504217777622427
-11.8285843373494,-0.5289716008932811,0.4504217777622427
-11.8260843373494,-0.5327335119843628,0.4504217777622427
-11.8235843373494,-0.5364954230754412,0.4504217777622427
-11.8210843373494,-0.5405993260838922,0.4504217777622427
-11.8185843373494,-0.5436772533402289,0.4504217777622427
-11.8160843373494,-0.5477811563486832,0.4466436843016548
-11.8135843373494,-0.5518850593571322,0.4504217777622427
-11.8110843373494,-0.5553049785308413,0.4504217777622427
-11.8085843373494,-0.5587248977045489,0.4504217777622427
-11.8060843373494,-0.5621448168782596,0.4504217777622427
-11.8035843373494,-0.5645387602998559,0.4504217777622427
-11.8010843373494,-0.5659067279693396,0.4504217777622427
-11.7985843373494,-0.5676166875561949,0.4504217777622427
-11.7960843373494,-0.5693266471430487,0.4504217777622427
-11.7935843373494,-0.5703526228951614,0.4504217777622427
-11.7910843373494,-0.5720625824820151,0.4504217777622427
-11.7885843373494,-0.5741145339862415,0.4504217777622427
-11.7860843373494,-0.5754825016557251,0.4504217777622427
-11.7835843373494,-0.5771924612425796,0.4504217777622427
-11.7810843373494,-0.5792444127468056,0.4504217777622427
-11.7785843373494,-0.5802703884989179,0.4504217777622427
-11.7760843373494,-0.5816383561684015,0.4504217777622427
-11.7735843373494,-0.5836903076726261,0.4504217777622427
-11.7710843373494,-0.5854002672594815,0.4504217777622427
-11.7685843373494,-0.5864262430115943,0.4504217777622427
-11.7660843373494,-0.5881362025984488,0.4504217777622427
-11.7635843373494,-0.5901881541026749,0.4504217777622427
-11.7610843373494,-0.5915561217721579,0.4504217777622427
-11.7585843373494,-0.5925820975242706,0.4504217777622427
-11.7560843373494,-0.5946340490284953,0.4504217777622427
-11.7535843373494,-0.5960020166979805,0.4504217777622427
-11.7510843373494,-0.5973699843674635,0.4504217777622427
-11.7485843373494,-0.599079943954318,0.4504217777622427
-11.7460843373494,-0.600447911623801,0.4504217777622427
-11.7435843373494,-0.6011318954585434,0.4504217777622427
-11.7410843373494,-0.6021578712106562,0.4504217777622427
-11.7385843373494,-0.6024998631280271,0.4504217777622427
-11.7360843373494,-0.6024998631280271,0.4504217777622427
-11.7335843373494,-0.6024998631280271,0.4504217777622427
-11.7310843373494,-0.6031838469627689,0.4504217777622427
-11.7285843373494,-0.6021578712106567,0.4504217777622427
-11.7260843373494,-0.6004479116238016,0.4504217777622427
-11.7235843373494,-0.5994219358716889,0.4504217777622427
-11.7210843373494,-0.5983959601195762,0.4504217777622427
-11.7185843373494,-0.5970279924500922,0.4504217777622427
-11.7160843373494,-0.5963440086153506,0.4504217777622427
-11.7135843373494,-0.5960020166979798,0.4504217777622427
-11.7110843373494,-0.595660024780609,0.4504217777622427
-11.7085843373494,-0.5953180328632379,0.4504217777622427
-11.7060843373494,-0.5953180328632379,0.4504217777622427
-11.7035843373494,-0.5949760409458671,0.4504217777622427
-11.7010843373494,-0.5942920571111252,0.4504217777622427
-11.6985843373494,-0.5942920571111252,0.4504217777622427
-11.6960843373494,-0.5939500651937543,0.4504217777622427
-11.6935843373494,-0.5932660813590128,0.4504217777622427
-11.6910843373494,-0.5932660813590124,0.4504217777622427
-11.6885843373494,-0.5929240894416415,0.4504217777622427
-11.6860843373494,-0.5918981136895288,0.4504217777622427
-11.6835843373494,-0.591556121772158,0.4504217777622427
-11.6810843373494,-0.5922401056068998,0.4504217777622427
-11.6785843373494,-0.5915561217721579,0.4504217777622427
-11.6760843373494,-0.5908721379374161,0.4504217777622427
-11.6735843373494,-0.5908721379374161,0.4504217777622427
-11.6710843373494,-0.5908721379374161,0.4504217777622427
-11.6685843373494,-0.5901881541026742,0.4504217777622427
-11.6660843373494,-0.5905301460200451,0.4504217777622427
-11.6635843373494,-0.5912141298547871,0.4504217777622427
-11.6610843373494,-0.5912141298547871,0.4504217777622427
-11.6585843373494,-0.5915561217721579,0.4504217777622427
-11.6560843373494,-0.592924089441642,0.4504217777622427
-11.6535843373494,-0.5939500651937543,0.4504217777622427
-11.6510843373494,-0.5953180328632379,0.4504217777622427
-11.6485843373494,-0.5963440086153502,0.4504217777622427
-11.6460843373494,-0.5973699843674635,0.4504217777622427
-11.6435843373494,-0.5977119762848343,0.4504217777622427
-11.6410843373494,-0.5983959601195762,0.4504217777622427
-11.6385843373494,-0.5990799439543184,0.4504217777622427
-11.6360843373494,-0.6001059197064307,0.4504217777622427
-11.6335843373494,-0.6014738873759143,0.4504217777622427
-11.6310843373494,-0.6038678307975096,0.4504217777622427
-11.6285843373494,-0.6052357984669952,0.4504217777622427
-11.6260843373494,-0.606945758053849,0.4504217777622427
-11.6235843373494,-0.6093397014754454,0.4504217777622427
-11.6210843373494,-0.6113916529796699,0.4504217777622427
-11.6185843373494,-0.6127596206491545,0.4504217777622427
-11.6160843373494,-0.6148115721533799,0.4504217777622427
-11.6135843373494,-0.6165215317402345,0.4504217777622427
-11.6110843373494,-0.6182314913270897,0.4504217777622427
-11.6085843373494,-0.6195994589965726,0.4504217777622427
-11.6060843373494,-0.621993402418169,0.4504217777622427
-11.6035843373494,-0.623361370087652,0.4504217777622427
-11.6010843373494,-0.6243873458397654,0.4504217777622427
-11.5985843373494,-0.6257553135092491,0.4504217777622427
-11.5960843373494,-0.6271232811787327,0.4504217777622427
-11.5935843373494,-0.6274652730961041,0.4504217777622427
-11.5910843373494,-0.6284912488482164,0.4504217777622427
-11.5885843373494,-0.6288332407655872,0.4504217777622427
-11.5860843373494,-0.6284912488482165,0.4504217777622427
-11.5835843373494,-0.6281492569308454,0.4504217777622427
-11.5810843373494,-0.6281492569308454,0.4504217777622427
-11.5785843373494,-0.6271232811787327,0.4504217777622427
-11.5760843373494,-0.6260973054266197,0.4504217777622427
-11.5735843373494,-0.6254133215918781,0.4504217777622427
-11.5710843373494,-0.6243873458397654,0.4504217777622427
-11.5685843373494,-0.6219934024181701,0.4504217777622427
-11.5660843373494,-0.6195994589965714,0.4504217777622427
-11.5635843373494,-0.6168635236576053,0.4504217777622427
-11.5610843373494,-0.6127596206491545,0.4504217777622427
-11.5585843373494,-0.6079717338059639,0.4504217777622427
-11.5560843373494,-0.6035258388801398,0.4504217777622427
-11.5535843373494,-0.5983959601195762,0.4504217777622427
-11.5510843373494,-0.5932660813590125,0.4504217777622427
-11.5485843373494,-0.5881362025984461,0.4504217777622427
-11.5460843373494,-0.5823223400031433,0.4504217777622427
-11.5435843373494,-0.5765084774078378,0.4504217777622427
-11.5410843373494,-0.5710366067299056,0.4504217777622427
-11.5385843373494,-0.5652227441345977,0.4504217777622427
-11.5360843373494,-0.5580409138698086,0.4504217777622427
-11.5335843373494,-0.5512010755223904,0.4504217777622427
-11.5310843373494,-0.5453872129270817,0.4504217777622427
-11.5285843373494,-0.5382053826622958,0.4504217777622427
-11.5260843373494,-0.5320495281496194,0.4504217777622427
-11.5235843373494,-0.5258936736369457,0.4504217777622427
-11.5210843373494,-0.5193958272068956,0.4504217777622427
-11.5185843373494,-0.5118720050247355,0.4504217777622427
-11.5160843373494,-0.5050321666773173,0.4504217777622427
-11.5135843373494,-0.4978503364125243,0.4504217777622427
-11.5110843373494,-0.4893005384782554,0.4504217777622427
-11.5085843373494,-0.4800667567092408,0.4504217777622427
-11.5060843373494,-0.4701489911054889,0.4504217777622427
-11.5035843373494,-0.4592052497496096,0.4504217777622427
-11.5010843373494,-0.4468935407242624,0.4504217777622427
-11.4985843373494,-0.4338978478641677,0.4504217777622427
-11.4960843373494,-0.419534187334596,0.4504217777622427
-11.4935843373494,-0.4031185753007857,0.4504217777622427
-11.4910843373494,-0.3856769875148692,0.4504217777622427
-11.4885843373494,-0.3661834482247273,0.4504217777622427
-11.4860843373494,-0.3436119816782356,0.4504217777622427
-11.4835843373494,-0.3183045797927996,0.4504217777622427
-11.4810843373494,-0.2916292102378685,0.4504217777622427
-11.4785843373494,-0.2611919295918713,0.4504217777622427
-11.4760843373494,-0.2287026974416208,0.4504217777622427
-11.4735843373494,-0.1962134652913842,0.4504217777622427
-11.4710843373494,-0.162356265471664,0.4504217777622427
-11.4685843373494,-0.1254211383955889,0.4504217777622427
-11.4660843373494,-0.08882800323691803,0.4504217777622427
-11.4635843373494,-0.05086690040874685,0.4504217777622427
-11.4610843373494,-0.01222181374585143,0.4504217777622427
-11.4585843373494,0.02744924866919188,0.4504217777622427
-11.4560843373494,0.06677831916684671,0.4504217777622427
-11.4535843373494,0.1074753573339852,0.4504217777622427
-11.4510843373494,0.1478304035837712,0.4504217777622427
-11.4485843373494,0.1885274417508912,0.4504217777622427
-11.4460843373494,0.2285404960832878,0.4504217777622427
-11.4435843373494,0.268895542333037,0.4504217777622427
-11.4410843373494,0.307882620913357,0.4504217777622427
-11.4385843373494,0.3468696994936232,0.4504217777622427
-11.4360843373494,0.3855147861565362,0.4504217777622427
-11.4335843373494,0.4224499132325778,0.4504217777622427
-11.4310843373494,0.4580170726391694,0.4504217777622427
-11.4285843373494,0.4935842320457442,0.4504217777622427
-11.4260843373494,0.5277834237828354,0.4504217777622427
-11.4235843373494,0.5595886720983444,0.4504217777622427
-11.4210843373494,0.5910519284964539,0.4504217777622427
-11.4185843373494,0.621831201059836,0.4504217777622427
-11.4160843373494,0.649874538284238,0.4504217777622427
-11.4135843373494,0.676207915921811,0.4504217777622427
-11.4110843373494,0.7018573097246293,0.4504217777622427
-11.4085843373494,0.7264807277753349,0.4504217777622427
-11.4060843373494,0.749736178156567,0.4504217777622427
-11.4035843373494,0.7719656527856662,0.4504217777622427
-11.4010843373494,0.7931691516626627,0.4504217777622427
-11.3985843373494,0.8119787071180542,0.4504217777622427
-11.3960843373494,0.8290783029866083,0.4504217777622427
-11.3935843373494,0.8451519231030412,0.4504217777622427
-11.3910843373494,0.8584896078805068,0.4504217777622427
-11.3885843373494,0.8704593249884937,0.4504217777622444
-11.3860843373494,0.8814030663443578,0.4541998712228323
-11.3835843373494,0.8909788400307433,0.4541998712228323
-11.3810843373494,0.8978186783781584,0.4541998712228323
-11.3785843373494,0.9043165248082116,0.4541998712228323
-11.3760843373494,0.9101303874035144,0.4541998712228323
-11.3735843373494,0.9138922984945944,0.4541998712228323
-11.3710843373494,0.9162862419161897,0.4541998712228323
-11.3685843373494,0.9190221772551581,0.4541998712228323
-11.3660843373494,0.9203901449246418,0.4541998712228323
-11.3635843373494,0.9207321368420126,0.4541998712228323
-11.3610843373494,0.9203901449246413,0.4541998712228323
-11.3585843373494,0.9193641691725289,0.4541998712228323
-11.3560843373494,0.9173122176683035,0.4541998712228323
-11.3535843373494,0.9145762823293374,0.4541998712228323
-11.3510843373494,0.9111563631556271,0.4541998712228323
-11.3485843373494,0.9063684763124343,0.4541998712228323
-11.3460843373494,0.9012385975518706,0.4541998712228323
-11.3435843373494,0.8964507107086749,0.4504217777622444
-11.3410843373494,0.8899528642786306,0.4541998712228323
-11.3385843373494,0.8827710340138415,0.4541998712228323
-11.3360843373494,0.8755892037490556,0.4504217777622444
-11.3335843373494,0.8670394058147796,0.4504217777622427
-11.3310843373494,0.857463632128394,0.4504217777622427
-11.3285843373494,0.8489138341941213,0.4504217777622427
-11.3260843373494,0.8400220443424732,0.4504217777622427
-11.3235843373494,0.830446270656092,0.4504217777622427
-11.3210843373494,0.8212124888870774,0.4541998712228323
-11.3185843373494,0.8126626909528085,0.4541998712228323
-11.3160843373494,0.8030869172664145,0.4541998712228323
-11.3135843373494,0.7928271597452917,0.4541998712228323
-11.3110843373494,0.7829093941415353,0.4541998712228323
-11.3085843373494,0.7729916285377835,0.4541998712228323
-11.3060843373494,0.7623898790992806,0.4541998712228323
-11.3035843373494,0.7528141054128951,0.4504217777622427
-11.3010843373494,0.7432383317265095,0.4504217777622427
-11.2985843373494,0.7329785742053777,0.4504217777622427
-11.2960843373494,0.7230608086016258,0.4504217777622427
-11.2935843373494,0.7138270268326112,0.4504217777622427
-11.2910843373494,0.7039092612288593,0.4504217777622427
-11.2885843373494,0.6943334875424693,0.4504217777622427
-11.2860843373494,0.6850997057734546,0.4504217777622427
-11.2835843373494,0.676207915921811,0.4504217777622427
-11.2810843373494,0.6659481584006793,0.4504217777622427
-11.2785843373494,0.656714376631669,0.4504217777622427
-11.2760843373494,0.6471386029452835,0.4504217777622427
-11.2735843373494,0.6368788454241607,0.4504217777622427
-11.2710843373494,0.6266190879030288,0.4541998712228323
-11.2685843373494,0.6167013222992723,0.4504217777622427
-11.2660843373494,0.6057575809434032,0.4541998712228323
-11.2635843373494,0.5944718476701584,0.4541998712228323
-11.2610843373494,0.5838700982316648,0.4541998712228323
-11.2585843373494,0.5732683487931666,0.4504217777622427
-11.2560843373494,0.5623246074373024,0.4504217777622427
-11.2535843373494,0.5517228579987945,0.4541998712228306
-11.2510843373494,0.5414631004776718,0.4504217777622427
-11.2485843373494,0.5312033429565445,0.4504217777622427
-11.2460843373494,0.5216275692701633,0.4504217777622427
-11.2435843373494,0.5130777713358862,0.4541998712228323
-11.2410843373494,0.5041859814842424,0.4504217777622427
-11.2385843373494,0.4956361835499697,0.4541998712228323
-11.2360843373494,0.4870863856156928,0.4541998712228323
-11.2335843373494,0.4781945957640532,0.4541998712228323
-11.2310843373494,0.4686188220776676,0.4541998712228323
-11.2285843373494,0.4604110160607695,0.4541998712228323
-11.2260843373494,0.4525452019612348,0.4541998712228323
-11.2235843373494,0.443995404026962,0.4541998712228323
-11.2210843373494,0.4354456060926892,0.4504217777622427
-11.2185843373494,0.4275797919931548,0.4504217777622444
-11.2160843373494,0.4200559698109982,0.4541998712228323
-11.2135843373494,0.4121901557114673,0.4541998712228323
-11.2110843373494,0.4056923092814229,0.4541998712228323
-11.2085843373494,0.3991944628513726,0.4541998712228323
-11.2060843373494,0.3926966164213253,0.4541998712228323
-11.2035843373494,0.3872247457433907,0.4541998712228323
-11.2010843373494,0.382436858900196,0.4541998712228323
-11.1985843373494,0.3779909639743761,0.4541998712228323
-11.1960843373494,0.3742290528832961,0.4541998712228323
-11.1935843373494,0.3708091337095885,0.4504217777622444
-11.1910843373494,0.3670472226185054,0.4541998712228323
-11.1885843373494,0.3636273034447978,0.4541998712228323
-11.1860843373494,0.3612333600232014,0.4541998712228323
-11.1835843373494,0.3588394166016062,0.4541998712228323
-11.1810843373494,0.3564454731800087,0.4541998712228323
-11.1785843373494,0.3557614893452669,0.4541998712228323
-11.1760843373494,0.3550775055105251,0.4541998712228323
-11.1735843373494,0.3537095378410411,0.4504217777622427
-11.1710843373494,0.3530255540062996,0.4504217777622427
-11.1685843373494,0.3533675459236705,0.4504217777622427
-11.1660843373494,0.3537095378410413,0.4504217777622427
-11.1635843373494,0.3543935216757833,0.4504217777622427
-11.1610843373494,0.3561034812626378,0.4541998712228323
-11.1585843373494,0.3578134408494923,0.4504217777622427
-11.1560843373494,0.3584974246842348,0.4504217777622427
-11.1535843373494,0.3598653923537178,0.4504217777622427
-11.1510843373494,0.3612333600232014,0.4504217777622427
-11.1485843373494,0.3619173438579429,0.4504217777622427
